I 4 v4
BRL Lighting Model - Test Case #1
S 20 arb8 1 2.539999961853e+01 -2.539999961853e+01 -2.539999961853e+01 0.000000000000e+00 5.079999923706e+01 0.000000000000e+00 0.000000000000e+00 5.079999923706e+01 5.079999923706e+01 0.000000000000e+00 0.000000000000e+00 5.079999923706e+01 -5.079999923706e+01 0.000000000000e+00 0.000000000000e+00 -5.079999923706e+01 5.079999923706e+01 0.000000000000e+00 -5.079999923706e+01 5.079999923706e+01 5.079999923706e+01 -5.079999923706e+01 0.000000000000e+00 5.079999923706e+01 
S 20 arb7 2 0.000000000000e+00 0.000000000000e+00 0.000000000000e+00 0.000000000000e+00 2.539999961853e+01 0.000000000000e+00 0.000000000000e+00 2.539999961853e+01 2.539999961853e+01 0.000000000000e+00 0.000000000000e+00 1.269999980927e+01 -2.539999961853e+01 0.000000000000e+00 0.000000000000e+00 -2.539999961853e+01 2.539999961853e+01 0.000000000000e+00 -2.539999961853e+01 2.539999961853e+01 1.269999980927e+01 -2.539999961853e+01 0.000000000000e+00 0.000000000000e+00 
S 20 arb5 3 0.000000000000e+00 0.000000000000e+00 0.000000000000e+00 0.000000000000e+00 2.539999961853e+01 0.000000000000e+00 0.000000000000e+00 2.539999961853e+01 2.539999961853e+01 0.000000000000e+00 0.000000000000e+00 2.539999961853e+01 -2.539999961853e+01 1.269999980927e+01 1.269999980927e+01 -2.539999961853e+01 1.269999980927e+01 1.269999980927e+01 -2.539999961853e+01 1.269999980927e+01 1.269999980927e+01 -2.539999961853e+01 1.269999980927e+01 1.269999980927e+01 
S 19 ellg 4 0.000000000000e+00 0.000000000000e+00 0.000000000000e+00 2.539999961853e+01 0.000000000000e+00 0.000000000000e+00 0.000000000000e+00 8.980256080627e+00 -8.980256080627e+00 0.000000000000e+00 8.980256080627e+00 8.980256080627e+00 0.000000000000e+00 0.000000000000e+00 0.000000000000e+00 0.000000000000e+00 0.000000000000e+00 0.000000000000e+00 0.000000000000e+00 0.000000000000e+00 0.000000000000e+00 0.000000000000e+00 0.000000000000e+00 0.000000000000e+00 
S 16 tor 6 1.120639228821e+01 4.386174774170e+01 4.332275009155e+01 -3.810148686171e-02 1.698336029053e+01 9.025330841541e-02 -9.780573844910e+00 -1.733137816191e-01 2.848929786682e+01 -2.848977279663e+01 -1.197262667120e-02 -9.780742645264e+00 -4.265992164612e+00 -7.559935748577e-02 1.242617130280e+01 -1.242637157440e+01 -5.215817131102e-03 -4.266073226929e+00 -1.529512500763e+01 -2.710370123386e-01 4.455243301392e+01 -4.455313873291e+01 -1.870598271489e-02 -1.529545974731e+01 
S 20 platform.s 1 2.203637542725e+02 -1.809236450195e+02 -3.644934463501e+01 0.000000000000e+00 4.064000549316e+02 0.000000000000e+00 0.000000000000e+00 4.064000549316e+02 5.305305480957e+00 0.000000000000e+00 0.000000000000e+00 5.305305480957e+00 -4.063999938965e+02 0.000000000000e+00 0.000000000000e+00 -4.063999938965e+02 4.064000549316e+02 0.000000000000e+00 -4.063999938965e+02 4.064000549316e+02 5.305305480957e+00 -4.063999938965e+02 0.000000000000e+00 5.305305480957e+00 
S 20 box.s 1 6.313345718384e+01 2.878656959534e+01 -1.462149429321e+01 0.000000000000e+00 2.679274749756e+01 0.000000000000e+00 0.000000000000e+00 2.679274749756e+01 2.679274749756e+01 0.000000000000e+00 0.000000000000e+00 2.679274749756e+01 -2.679274749756e+01 0.000000000000e+00 0.000000000000e+00 -2.679274749756e+01 2.679274749756e+01 0.000000000000e+00 -2.679274749756e+01 2.679274749756e+01 2.679274749756e+01 -2.679274749756e+01 0.000000000000e+00 2.679274749756e+01 
S 18 cone.s 5 9.307949066162e+01 1.882479248047e+02 -9.301582336426e+01 0.000000000000e+00 0.000000000000e+00 6.883364868164e+01 1.796051263809e+00 -1.796051263809e+00 0.000000000000e+00 1.796051263809e+00 1.796051263809e+00 0.000000000000e+00 3.592102289200e+00 -3.592102289200e+00 0.000000000000e+00 3.592102289200e+00 3.592102289200e+00 0.000000000000e+00 0.000000000000e+00 0.000000000000e+00 0.000000000000e+00 0.000000000000e+00 0.000000000000e+00 0.000000000000e+00 
S 19 ellipse.s 4 1.060927295685e+01 -3.458271026611e+00 2.183399772644e+01 2.920999717712e+01 0.000000000000e+00 0.000000000000e+00 0.000000000000e+00 2.065458869934e+01 -2.065458869934e+01 0.000000000000e+00 2.065458869934e+01 2.065458869934e+01 0.000000000000e+00 0.000000000000e+00 0.000000000000e+00 0.000000000000e+00 0.000000000000e+00 0.000000000000e+00 0.000000000000e+00 0.000000000000e+00 0.000000000000e+00 0.000000000000e+00 0.000000000000e+00 0.000000000000e+00 
C Y platform.r 1000 0 1 -16081 0 0 97 142 0 0 0 0 0 
M + platform.s 1.000000000000e+00 0.000000000000e+00 0.000000000000e+00 0.000000000000e+00 0.000000000000e+00 1.000000000000e+00 0.000000000000e+00 0.000000000000e+00 0.000000000000e+00 0.000000000000e+00 1.000000000000e+00 0.000000000000e+00 0.000000000000e+00 0.000000000000e+00 0.000000000000e+00 1.000000000000e+00 16268 
C Y box.r 2000 0 1 -16558 2 0 -94 20 0 0 0 0 0 
M + box.s 1.000000000000e+00 0.000000000000e+00 0.000000000000e+00 0.000000000000e+00 0.000000000000e+00 1.000000000000e+00 0.000000000000e+00 0.000000000000e+00 0.000000000000e+00 0.000000000000e+00 1.000000000000e+00 0.000000000000e+00 0.000000000000e+00 0.000000000000e+00 0.000000000000e+00 1.000000000000e+00 16519 
C Y tor.r 2000 0 1 -9728 4 0 0 0 38 0 0 0 1 
M + tor_new.s 7.707807421684e-01 -6.371003985405e-01 5.727606476285e-04 5.239070129395e+01 6.371005773544e-01 7.707799077034e-01 -1.200461992994e-03 1.093293762207e+01 3.233424213249e-04 1.290198881179e-03 9.999991059303e-01 -1.045475006104e-01 0.000000000000e+00 0.000000000000e+00 0.000000000000e+00 1.000000000000e+00 128 
S 19 ball_1.s 4 1.646551704407e+01 -2.293310546875e+01 4.154507064819e+01 1.374063301086e+01 0.000000000000e+00 0.000000000000e+00 0.000000000000e+00 8.748117446899e+00 -8.748117446899e+00 0.000000000000e+00 8.748118400574e+00 8.748118400574e+00 0.000000000000e+00 0.000000000000e+00 0.000000000000e+00 0.000000000000e+00 0.000000000000e+00 0.000000000000e+00 0.000000000000e+00 0.000000000000e+00 0.000000000000e+00 0.000000000000e+00 0.000000000000e+00 0.000000000000e+00 
S 19 LIGHT 11 2.194962120056e+01 -1.559576129913e+01 5.833973693848e+01 1.409281349182e+01 0.000000000000e+00 0.000000000000e+00 0.000000000000e+00 1.409281349182e+01 0.000000000000e+00 0.000000000000e+00 0.000000000000e+00 1.409281349182e+01 0.000000000000e+00 0.000000000000e+00 0.000000000000e+00 0.000000000000e+00 -2.304514613056e+25 -1.877612798297e+25 1.906546502743e+33 -6.963319352550e-13 0.000000000000e+00 -1.163663920270e+29 -6.486808072591e+29 0.000000000000e+00 
S 18 leg1.s 5 9.307949066162e+01 1.882479248047e+02 -9.301582336426e+01 0.000000000000e+00 0.000000000000e+00 6.883364868164e+01 1.796051263809e+00 -1.796051263809e+00 0.000000000000e+00 1.796051263809e+00 1.796051263809e+00 0.000000000000e+00 3.592102289200e+00 -3.592102289200e+00 0.000000000000e+00 3.592102289200e+00 3.592102289200e+00 0.000000000000e+00 0.000000000000e+00 0.000000000000e+00 0.000000000000e+00 0.000000000000e+00 0.000000000000e+00 0.000000000000e+00 
C Y lens.r 3000 0 2 -17930 2 0 0 0 4 41 0 0 1 
M + lens 3.134962618351e-01 -5.798887014389e-01 7.519619464874e-01 8.874588966370e+00 7.038139104843e-01 -3.897033333778e-01 -5.939497351646e-01 -2.849096870422e+01 6.374681591988e-01 7.154430747032e-01 2.859637141228e-01 8.215983390808e+00 0.000000000000e+00 0.000000000000e+00 0.000000000000e+00 4.732966721058e-01 128 
M + cut.s 3.134962618351e-01 -5.798887014389e-01 7.519619464874e-01 8.874588966370e+00 7.038139104843e-01 -3.897033333778e-01 -5.939497351646e-01 -2.849096870422e+01 6.374681591988e-01 7.154430747032e-01 2.859637141228e-01 8.215983390808e+00 0.000000000000e+00 0.000000000000e+00 0.000000000000e+00 4.732966721058e-01 128 
S 18 leg2.s 5 9.307949066162e+01 1.882479248047e+02 -9.301582336426e+01 0.000000000000e+00 0.000000000000e+00 6.883364868164e+01 1.796051263809e+00 -1.796051263809e+00 0.000000000000e+00 1.796051263809e+00 1.796051263809e+00 0.000000000000e+00 3.592102289200e+00 -3.592102289200e+00 0.000000000000e+00 3.592102289200e+00 3.592102289200e+00 0.000000000000e+00 0.000000000000e+00 0.000000000000e+00 0.000000000000e+00 0.000000000000e+00 0.000000000000e+00 0.000000000000e+00 
S 18 cone_in.s 5 1.084890270233e+01 2.413493919373e+01 -1.526949691772e+01 0.000000000000e+00 0.000000000000e+00 3.232509231567e+01 6.924856662750e+00 -6.924856662750e+00 0.000000000000e+00 6.907297134399e+00 6.907297134399e+00 0.000000000000e+00 -4.605004191399e-02 4.605004191399e-02 0.000000000000e+00 -2.361693829298e-01 -2.361693829298e-01 0.000000000000e+00 0.000000000000e+00 0.000000000000e+00 0.000000000000e+00 0.000000000000e+00 0.000000000000e+00 0.000000000000e+00 
S 19 ell_in.s 4 1.060927295685e+01 -3.458271026611e+00 2.183399772644e+01 2.666999626160e+01 0.000000000000e+00 0.000000000000e+00 0.000000000000e+00 1.885853576660e+01 -1.885853576660e+01 0.000000000000e+00 1.885853576660e+01 1.885853576660e+01 0.000000000000e+00 0.000000000000e+00 0.000000000000e+00 0.000000000000e+00 0.000000000000e+00 0.000000000000e+00 0.000000000000e+00 0.000000000000e+00 0.000000000000e+00 0.000000000000e+00 0.000000000000e+00 0.000000000000e+00 
S 19 ball_1_in.s 4 1.646551704407e+01 -2.293310546875e+01 4.154507064819e+01 1.120063304901e+01 0.000000000000e+00 0.000000000000e+00 0.000000000000e+00 6.952066421509e+00 -6.952066421509e+00 0.000000000000e+00 6.952067852020e+00 6.952067852020e+00 0.000000000000e+00 0.000000000000e+00 0.000000000000e+00 0.000000000000e+00 0.000000000000e+00 0.000000000000e+00 0.000000000000e+00 0.000000000000e+00 0.000000000000e+00 0.000000000000e+00 0.000000000000e+00 0.000000000000e+00 
C Y ball_1.r 7000 0 2 -16640 1 0 -58 101 10 64 0 0 0 
M + ball_1.s 1.000000000000e+00 0.000000000000e+00 0.000000000000e+00 0.000000000000e+00 0.000000000000e+00 1.000000000000e+00 0.000000000000e+00 0.000000000000e+00 0.000000000000e+00 0.000000000000e+00 1.000000000000e+00 0.000000000000e+00 0.000000000000e+00 0.000000000000e+00 0.000000000000e+00 1.000000000000e+00 0 
M - ball_1_in.s 1.000000000000e+00 0.000000000000e+00 0.000000000000e+00 0.000000000000e+00 0.000000000000e+00 1.000000000000e+00 0.000000000000e+00 0.000000000000e+00 0.000000000000e+00 0.000000000000e+00 1.000000000000e+00 0.000000000000e+00 0.000000000000e+00 0.000000000000e+00 0.000000000000e+00 1.000000000000e+00 0 
S 20 cut.s 8 1.985100555420e+01 -1.905696487427e+01 1.462357330322e+01 0.000000000000e+00 4.119929504395e+01 0.000000000000e+00 0.000000000000e+00 4.119929504395e+01 4.580685138702e+00 0.000000000000e+00 0.000000000000e+00 4.580685138702e+00 -4.119929504395e+01 0.000000000000e+00 0.000000000000e+00 -4.119929504395e+01 4.119929504395e+01 0.000000000000e+00 -4.119929504395e+01 4.119929504395e+01 4.580685138702e+00 -4.119929504395e+01 0.000000000000e+00 4.580685138702e+00 
C N foo -1 0 0 17056 0 0 0 0 0 0 0 0 0 
S 20 ground 8 2.009738311768e+02 -1.792178192139e+02 -1.316130828857e+02 0.000000000000e+00 3.646744079590e+02 0.000000000000e+00 0.000000000000e+00 3.646744079590e+02 2.539999389648e+01 0.000000000000e+00 0.000000000000e+00 2.539999389648e+01 -3.646744079590e+02 0.000000000000e+00 0.000000000000e+00 -3.646744079590e+02 3.646744079590e+02 0.000000000000e+00 -3.646744079590e+02 3.646744079590e+02 2.539999389648e+01 -3.646744079590e+02 0.000000000000e+00 2.539999389648e+01 
S 18 leg3.s 5 9.307949066162e+01 1.882479248047e+02 -9.301582336426e+01 0.000000000000e+00 0.000000000000e+00 6.883364868164e+01 1.796051263809e+00 -1.796051263809e+00 0.000000000000e+00 1.796051263809e+00 1.796051263809e+00 0.000000000000e+00 3.592102289200e+00 -3.592102289200e+00 0.000000000000e+00 3.592102289200e+00 3.592102289200e+00 0.000000000000e+00 0.000000000000e+00 0.000000000000e+00 0.000000000000e+00 0.000000000000e+00 0.000000000000e+00 0.000000000000e+00 
C Y leg.r 4000 0 1 -16209 1 0 -93 20 0 0 0 0 0 
M + cone.s 1.000000000000e+00 0.000000000000e+00 0.000000000000e+00 5.855491638184e+01 0.000000000000e+00 1.000000000000e+00 0.000000000000e+00 -5.157658386230e+01 0.000000000000e+00 0.000000000000e+00 1.000000000000e+00 -1.235217666626e+01 0.000000000000e+00 0.000000000000e+00 0.000000000000e+00 1.000000000000e+00 0 
C Y ground.r 1000 0 1 -24396 0 100 -66 71 180 160 1 1 0 
K-@
@@@@@@@;@
M + ground 1.000000000000e+00 0.000000000000e+00 0.000000000000e+00 0.000000000000e+00 0.000000000000e+00 1.000000000000e+00 0.000000000000e+00 0.000000000000e+00 0.000000000000e+00 0.000000000000e+00 1.000000000000e+00 0.000000000000e+00 0.000000000000e+00 0.000000000000e+00 0.000000000000e+00 1.000000000000e+00 0 
C Y ellipse.r 3000 0 1 16619 3 0 -61 18 21 64 0 0 0 
M + ellipse.s 1.000000000000e+00 0.000000000000e+00 0.000000000000e+00 -9.125897216797e+01 0.000000000000e+00 1.000000000000e+00 0.000000000000e+00 -3.194890594482e+01 0.000000000000e+00 0.000000000000e+00 1.000000000000e+00 -1.003160381317e+01 0.000000000000e+00 0.000000000000e+00 0.000000000000e+00 1.000000000000e+00 0 
C Y leg2.r 4000 0 1 -16209 1 0 -93 20 0 0 0 0 0 
M + cone.s 1.000000000000e+00 0.000000000000e+00 0.000000000000e+00 -2.081063079834e+02 0.000000000000e+00 1.000000000000e+00 0.000000000000e+00 -3.185685729980e+02 0.000000000000e+00 0.000000000000e+00 1.000000000000e+00 -1.235218429565e+01 0.000000000000e+00 0.000000000000e+00 0.000000000000e+00 1.000000000000e+00 0 
S 19 lens 4 0.000000000000e+00 0.000000000000e+00 0.000000000000e+00 1.701799964905e+01 0.000000000000e+00 0.000000000000e+00 0.000000000000e+00 1.203354358673e+01 -1.203354358673e+01 0.000000000000e+00 1.203354358673e+01 1.203354358673e+01 0.000000000000e+00 0.000000000000e+00 0.000000000000e+00 0.000000000000e+00 0.000000000000e+00 0.000000000000e+00 0.000000000000e+00 0.000000000000e+00 0.000000000000e+00 0.000000000000e+00 0.000000000000e+00 0.000000000000e+00 
C N lens.g -1 0 4 0 0 0 0 0 0 0 0 0 0 
M u platform.r 1.000000000000e+00 0.000000000000e+00 0.000000000000e+00 0.000000000000e+00 0.000000000000e+00 1.000000000000e+00 0.000000000000e+00 0.000000000000e+00 0.000000000000e+00 0.000000000000e+00 1.000000000000e+00 0.000000000000e+00 0.000000000000e+00 0.000000000000e+00 0.000000000000e+00 1.000000000000e+00 15422 
M u cone.r 1.000000000000e+00 0.000000000000e+00 0.000000000000e+00 0.000000000000e+00 0.000000000000e+00 1.000000000000e+00 0.000000000000e+00 0.000000000000e+00 0.000000000000e+00 0.000000000000e+00 1.000000000000e+00 0.000000000000e+00 0.000000000000e+00 0.000000000000e+00 0.000000000000e+00 1.000000000000e+00 15422 
M u tor.r 1.000000000000e+00 0.000000000000e+00 0.000000000000e+00 0.000000000000e+00 0.000000000000e+00 1.000000000000e+00 0.000000000000e+00 0.000000000000e+00 0.000000000000e+00 0.000000000000e+00 1.000000000000e+00 0.000000000000e+00 0.000000000000e+00 0.000000000000e+00 0.000000000000e+00 1.000000000000e+00 15422 
M u ellipse.r 1.000000000000e+00 0.000000000000e+00 0.000000000000e+00 0.000000000000e+00 0.000000000000e+00 1.000000000000e+00 0.000000000000e+00 0.000000000000e+00 0.000000000000e+00 0.000000000000e+00 1.000000000000e+00 0.000000000000e+00 0.000000000000e+00 0.000000000000e+00 0.000000000000e+00 1.000000000000e+00 15422 
m 0 3000 3000 255 0 0
S 16 tor_new.s 16 1.242219734192e+01 7.993095397949e+01 1.017696571350e+01 -7.573046957437e-17 3.436920166016e+00 0.000000000000e+00 -3.476874542236e+01 -7.661083723857e-16 0.000000000000e+00 0.000000000000e+00 0.000000000000e+00 3.476874542236e+01 -3.133182525635e+01 -6.903779094288e-16 0.000000000000e+00 0.000000000000e+00 0.000000000000e+00 3.133182525635e+01 -3.820566558838e+01 -8.418387824031e-16 0.000000000000e+00 0.000000000000e+00 0.000000000000e+00 3.820566558838e+01 
C Y leg1.r 4000 0 1 -16209 1 0 -93 20 0 0 0 0 0 
M + cone.s 1.000000000000e+00 0.000000000000e+00 0.000000000000e+00 -2.102603912354e+02 0.000000000000e+00 1.000000000000e+00 0.000000000000e+00 -5.157658386230e+01 0.000000000000e+00 0.000000000000e+00 1.000000000000e+00 -1.235218429565e+01 0.000000000000e+00 0.000000000000e+00 0.000000000000e+00 1.000000000000e+00 0 
m 0 3001 3001 0 255 0
C Y leg3.r 4000 0 1 -16209 1 0 -93 20 0 0 0 0 0 
M + cone.s 1.000000000000e+00 0.000000000000e+00 0.000000000000e+00 5.855493164063e+01 0.000000000000e+00 1.000000000000e+00 0.000000000000e+00 -3.192148132324e+02 0.000000000000e+00 0.000000000000e+00 1.000000000000e+00 -1.235218429565e+01 0.000000000000e+00 0.000000000000e+00 0.000000000000e+00 1.000000000000e+00 0 
m 0 3002 3002 0 0 255
m 0 3003 3003 255 0 255
S 18 Outside 12 0.000000000000e+00 0.000000000000e+00 -5.080000000000e+02 0.000000000000e+00 0.000000000000e+00 2.032000000000e+03 3.592102355957e+02 -3.592102355957e+02 0.000000000000e+00 3.592102661133e+02 3.592102661133e+02 0.000000000000e+00 3.592102355957e+02 -3.592102355957e+02 0.000000000000e+00 3.592102661133e+02 3.592102661133e+02 0.000000000000e+00 0.000000000000e+00 0.000000000000e+00 0.000000000000e+00 0.000000000000e+00 0.000000000000e+00 0.000000000000e+00 
S 18 CLOUD 12 0.000000000000e+00 0.000000000000e+00 -4.826000061035e+02 0.000000000000e+00 0.000000000000e+00 1.981199951172e+03 3.412497253418e+02 -3.412497253418e+02 0.000000000000e+00 3.412497558594e+02 3.412497558594e+02 0.000000000000e+00 3.412497253418e+02 -3.412497253418e+02 0.000000000000e+00 3.412497558594e+02 3.412497558594e+02 0.000000000000e+00 0.000000000000e+00 0.000000000000e+00 0.000000000000e+00 0.000000000000e+00 0.000000000000e+00 0.000000000000e+00 
C Y shell.r 1000 0 2 -6436 1 100 -1 127 53 131 0 0 0 
M u Outside 1.000000000000e+00 0.000000000000e+00 0.000000000000e+00 0.000000000000e+00 0.000000000000e+00 1.000000000000e+00 0.000000000000e+00 0.000000000000e+00 0.000000000000e+00 0.000000000000e+00 1.000000000000e+00 0.000000000000e+00 0.000000000000e+00 0.000000000000e+00 0.000000000000e+00 1.000000000000e+00 0 
M - CLOUD 1.000000000000e+00 0.000000000000e+00 0.000000000000e+00 0.000000000000e+00 0.000000000000e+00 1.000000000000e+00 0.000000000000e+00 0.000000000000e+00 0.000000000000e+00 0.000000000000e+00 1.000000000000e+00 0.000000000000e+00 0.000000000000e+00 0.000000000000e+00 0.000000000000e+00 1.000000000000e+00 0 
C N checkerboard -1 0 4 49 0 0 114 101 0 0 0 0 0 
M u Square1 1.000000000000e+00 0.000000000000e+00 0.000000000000e+00 0.000000000000e+00 0.000000000000e+00 1.000000000000e+00 0.000000000000e+00 0.000000000000e+00 0.000000000000e+00 0.000000000000e+00 1.000000000000e+00 0.000000000000e+00 0.000000000000e+00 0.000000000000e+00 0.000000000000e+00 1.000000000000e+00 16512 
M u Square2 1.000000000000e+00 0.000000000000e+00 0.000000000000e+00 0.000000000000e+00 0.000000000000e+00 1.000000000000e+00 0.000000000000e+00 0.000000000000e+00 0.000000000000e+00 0.000000000000e+00 1.000000000000e+00 0.000000000000e+00 0.000000000000e+00 0.000000000000e+00 0.000000000000e+00 1.000000000000e+00 16512 
M u Square3 1.000000000000e+00 0.000000000000e+00 0.000000000000e+00 0.000000000000e+00 0.000000000000e+00 1.000000000000e+00 0.000000000000e+00 0.000000000000e+00 0.000000000000e+00 0.000000000000e+00 1.000000000000e+00 0.000000000000e+00 0.000000000000e+00 0.000000000000e+00 0.000000000000e+00 1.000000000000e+00 16512 
M u Square4 1.000000000000e+00 0.000000000000e+00 0.000000000000e+00 0.000000000000e+00 0.000000000000e+00 1.000000000000e+00 0.000000000000e+00 0.000000000000e+00 0.000000000000e+00 0.000000000000e+00 1.000000000000e+00 0.000000000000e+00 0.000000000000e+00 0.000000000000e+00 0.000000000000e+00 1.000000000000e+00 16512 
C N Square1 -1 0 4 0 0 0 -1 127 0 0 0 0 0 
M u square1 1.000000000000e+00 0.000000000000e+00 0.000000000000e+00 7.619999694824e+01 0.000000000000e+00 1.000000000000e+00 0.000000000000e+00 -7.619999694824e+01 0.000000000000e+00 0.000000000000e+00 1.000000000000e+00 0.000000000000e+00 0.000000000000e+00 0.000000000000e+00 0.000000000000e+00 1.000000000000e+00 0 
M u square2 1.000000000000e+00 0.000000000000e+00 0.000000000000e+00 7.619999694824e+01 0.000000000000e+00 1.000000000000e+00 0.000000000000e+00 -7.619999694824e+01 0.000000000000e+00 0.000000000000e+00 1.000000000000e+00 0.000000000000e+00 0.000000000000e+00 0.000000000000e+00 0.000000000000e+00 1.000000000000e+00 0 
M u square3 1.000000000000e+00 0.000000000000e+00 0.000000000000e+00 7.619999694824e+01 0.000000000000e+00 1.000000000000e+00 0.000000000000e+00 -7.619999694824e+01 0.000000000000e+00 0.000000000000e+00 1.000000000000e+00 0.000000000000e+00 0.000000000000e+00 0.000000000000e+00 0.000000000000e+00 1.000000000000e+00 0 
M u square4 1.000000000000e+00 0.000000000000e+00 0.000000000000e+00 7.619999694824e+01 0.000000000000e+00 1.000000000000e+00 0.000000000000e+00 -7.619999694824e+01 0.000000000000e+00 0.000000000000e+00 1.000000000000e+00 0.000000000000e+00 0.000000000000e+00 0.000000000000e+00 0.000000000000e+00 1.000000000000e+00 0 
C N square1 -1 0 4 -3590 0 0 2 0 0 0 0 0 0 
M u r100 1.000000000000e+00 0.000000000000e+00 0.000000000000e+00 3.809999847412e+01 0.000000000000e+00 1.000000000000e+00 0.000000000000e+00 -3.809999847412e+01 0.000000000000e+00 0.000000000000e+00 1.000000000000e+00 0.000000000000e+00 0.000000000000e+00 0.000000000000e+00 0.000000000000e+00 1.000000000000e+00 -15592 
M u r101 1.000000000000e+00 0.000000000000e+00 0.000000000000e+00 3.809999847412e+01 0.000000000000e+00 1.000000000000e+00 0.000000000000e+00 -3.809999847412e+01 0.000000000000e+00 0.000000000000e+00 1.000000000000e+00 0.000000000000e+00 0.000000000000e+00 0.000000000000e+00 0.000000000000e+00 1.000000000000e+00 -15592 
M u r102 1.000000000000e+00 0.000000000000e+00 0.000000000000e+00 3.809999847412e+01 0.000000000000e+00 1.000000000000e+00 0.000000000000e+00 -3.809999847412e+01 0.000000000000e+00 0.000000000000e+00 1.000000000000e+00 0.000000000000e+00 0.000000000000e+00 0.000000000000e+00 0.000000000000e+00 1.000000000000e+00 -15592 
M u r103 1.000000000000e+00 0.000000000000e+00 0.000000000000e+00 3.809999847412e+01 0.000000000000e+00 1.000000000000e+00 0.000000000000e+00 -3.809999847412e+01 0.000000000000e+00 0.000000000000e+00 1.000000000000e+00 0.000000000000e+00 0.000000000000e+00 0.000000000000e+00 0.000000000000e+00 1.000000000000e+00 -15592 
C Y r100 3000 0 1 25 11 100 7 0 192 54 0 0 0 
M + s100 1.000000000000e+00 0.000000000000e+00 0.000000000000e+00 0.000000000000e+00 0.000000000000e+00 1.000000000000e+00 0.000000000000e+00 0.000000000000e+00 0.000000000000e+00 0.000000000000e+00 1.000000000000e+00 0.000000000000e+00 0.000000000000e+00 0.000000000000e+00 0.000000000000e+00 1.000000000000e+00 -6400 
S 20 s100 8 3.809999847412e+01 -3.809999847412e+01 -2.539999961853e+01 0.000000000000e+00 3.809999847412e+01 0.000000000000e+00 0.000000000000e+00 3.809999847412e+01 5.079999923706e+00 0.000000000000e+00 0.000000000000e+00 5.079999923706e+00 -3.809999847412e+01 0.000000000000e+00 0.000000000000e+00 -3.809999847412e+01 3.809999847412e+01 0.000000000000e+00 -3.809999847412e+01 3.809999847412e+01 5.079999923706e+00 -3.809999847412e+01 0.000000000000e+00 5.079999923706e+00 
C Y r101 3001 0 1 25 12 100 7 0 192 54 0 0 0 
M + s101 1.000000000000e+00 0.000000000000e+00 0.000000000000e+00 0.000000000000e+00 0.000000000000e+00 1.000000000000e+00 0.000000000000e+00 0.000000000000e+00 0.000000000000e+00 0.000000000000e+00 1.000000000000e+00 0.000000000000e+00 0.000000000000e+00 0.000000000000e+00 0.000000000000e+00 1.000000000000e+00 -6400 
S 20 s101 8 -3.809999847412e+01 -3.809999847412e+01 -2.539999961853e+01 0.000000000000e+00 3.809999847412e+01 0.000000000000e+00 0.000000000000e+00 3.809999847412e+01 5.079999923706e+00 0.000000000000e+00 0.000000000000e+00 5.079999923706e+00 3.809999847412e+01 0.000000000000e+00 0.000000000000e+00 3.809999847412e+01 3.809999847412e+01 0.000000000000e+00 3.809999847412e+01 3.809999847412e+01 5.079999923706e+00 3.809999847412e+01 0.000000000000e+00 5.079999923706e+00 
C Y r102 3002 0 1 25 11 100 7 0 192 54 0 0 0 
M + s102 1.000000000000e+00 0.000000000000e+00 0.000000000000e+00 0.000000000000e+00 0.000000000000e+00 1.000000000000e+00 0.000000000000e+00 0.000000000000e+00 0.000000000000e+00 0.000000000000e+00 1.000000000000e+00 0.000000000000e+00 0.000000000000e+00 0.000000000000e+00 0.000000000000e+00 1.000000000000e+00 -6400 
S 20 s102 8 -3.809999847412e+01 3.809999847412e+01 -2.539999961853e+01 0.000000000000e+00 -3.809999847412e+01 0.000000000000e+00 0.000000000000e+00 -3.809999847412e+01 5.079999923706e+00 0.000000000000e+00 0.000000000000e+00 5.079999923706e+00 3.809999847412e+01 0.000000000000e+00 0.000000000000e+00 3.809999847412e+01 -3.809999847412e+01 0.000000000000e+00 3.809999847412e+01 -3.809999847412e+01 5.079999923706e+00 3.809999847412e+01 0.000000000000e+00 5.079999923706e+00 
C Y r103 3003 0 1 25 12 100 7 0 192 54 0 0 0 
M + s103 1.000000000000e+00 0.000000000000e+00 0.000000000000e+00 0.000000000000e+00 0.000000000000e+00 1.000000000000e+00 0.000000000000e+00 0.000000000000e+00 0.000000000000e+00 0.000000000000e+00 1.000000000000e+00 0.000000000000e+00 0.000000000000e+00 0.000000000000e+00 0.000000000000e+00 1.000000000000e+00 -6400 
S 20 s103 8 3.809999847412e+01 3.809999847412e+01 -2.539999961853e+01 0.000000000000e+00 -3.809999847412e+01 0.000000000000e+00 0.000000000000e+00 -3.809999847412e+01 5.079999923706e+00 0.000000000000e+00 0.000000000000e+00 5.079999923706e+00 -3.809999847412e+01 0.000000000000e+00 0.000000000000e+00 -3.809999847412e+01 -3.809999847412e+01 0.000000000000e+00 -3.809999847412e+01 -3.809999847412e+01 5.079999923706e+00 -3.809999847412e+01 0.000000000000e+00 5.079999923706e+00 
C N square2 -1 0 1 6 0 0 0 0 0 0 0 0 0 
M u square1 1.000000000000e+00 0.000000000000e+00 0.000000000000e+00 0.000000000000e+00 0.000000000000e+00 1.000000000000e+00 0.000000000000e+00 7.619999694824e+01 0.000000000000e+00 0.000000000000e+00 1.000000000000e+00 0.000000000000e+00 0.000000000000e+00 0.000000000000e+00 0.000000000000e+00 1.000000000000e+00 0 
C N square3 -1 0 1 49 0 0 0 0 0 0 0 0 0 
M u square1 1.000000000000e+00 0.000000000000e+00 0.000000000000e+00 -7.619999694824e+01 0.000000000000e+00 1.000000000000e+00 0.000000000000e+00 0.000000000000e+00 0.000000000000e+00 0.000000000000e+00 1.000000000000e+00 0.000000000000e+00 0.000000000000e+00 0.000000000000e+00 0.000000000000e+00 1.000000000000e+00 0 
C N square4 -1 0 1 49 0 0 0 0 0 0 0 0 0 
M u square1 1.000000000000e+00 0.000000000000e+00 0.000000000000e+00 -7.619999694824e+01 0.000000000000e+00 1.000000000000e+00 0.000000000000e+00 7.619999694824e+01 0.000000000000e+00 0.000000000000e+00 1.000000000000e+00 0.000000000000e+00 0.000000000000e+00 0.000000000000e+00 0.000000000000e+00 1.000000000000e+00 0 
C N Square2 -1 0 1 30029 0 0 114 101 0 0 0 0 0 
M u Square1 1.000000000000e+00 0.000000000000e+00 0.000000000000e+00 -1.523999938965e+02 0.000000000000e+00 1.000000000000e+00 0.000000000000e+00 0.000000000000e+00 0.000000000000e+00 0.000000000000e+00 1.000000000000e+00 0.000000000000e+00 0.000000000000e+00 0.000000000000e+00 0.000000000000e+00 1.000000000000e+00 16512 
C N Square3 -1 0 1 49 0 0 114 101 0 0 0 0 0 
M u Square1 1.000000000000e+00 0.000000000000e+00 0.000000000000e+00 0.000000000000e+00 0.000000000000e+00 1.000000000000e+00 0.000000000000e+00 1.523999938965e+02 0.000000000000e+00 0.000000000000e+00 1.000000000000e+00 0.000000000000e+00 0.000000000000e+00 0.000000000000e+00 0.000000000000e+00 1.000000000000e+00 16512 
C N Square4 -1 0 1 49 0 0 114 101 0 0 0 0 0 
M u Square1 1.000000000000e+00 0.000000000000e+00 0.000000000000e+00 -1.523999938965e+02 0.000000000000e+00 1.000000000000e+00 0.000000000000e+00 1.523999938965e+02 0.000000000000e+00 0.000000000000e+00 1.000000000000e+00 0.000000000000e+00 0.000000000000e+00 0.000000000000e+00 0.000000000000e+00 1.000000000000e+00 16512 
C N all.g -1 0 9 0 0 0 0 0 0 0 0 0 0 
M u checkerboard 1.000000000000e+00 0.000000000000e+00 0.000000000000e+00 1.734045410156e+01 0.000000000000e+00 1.000000000000e+00 0.000000000000e+00 3.044459104538e+00 0.000000000000e+00 0.000000000000e+00 1.000000000000e+00 -1.046760368347e+01 0.000000000000e+00 0.000000000000e+00 0.000000000000e+00 1.000000000000e+00 15422 
M u tor.r 1.000000000000e+00 0.000000000000e+00 0.000000000000e+00 0.000000000000e+00 0.000000000000e+00 1.000000000000e+00 0.000000000000e+00 0.000000000000e+00 0.000000000000e+00 0.000000000000e+00 1.000000000000e+00 0.000000000000e+00 0.000000000000e+00 0.000000000000e+00 0.000000000000e+00 1.000000000000e+00 15422 
M u ellipse.r 1.000000000000e+00 0.000000000000e+00 0.000000000000e+00 0.000000000000e+00 0.000000000000e+00 1.000000000000e+00 0.000000000000e+00 0.000000000000e+00 0.000000000000e+00 0.000000000000e+00 1.000000000000e+00 0.000000000000e+00 0.000000000000e+00 0.000000000000e+00 0.000000000000e+00 1.000000000000e+00 15422 
M u leg.r 1.000000000000e+00 0.000000000000e+00 0.000000000000e+00 0.000000000000e+00 0.000000000000e+00 1.000000000000e+00 0.000000000000e+00 0.000000000000e+00 0.000000000000e+00 0.000000000000e+00 1.000000000000e+00 0.000000000000e+00 0.000000000000e+00 0.000000000000e+00 0.000000000000e+00 1.000000000000e+00 0 
M u leg1.r 1.000000000000e+00 0.000000000000e+00 0.000000000000e+00 0.000000000000e+00 0.000000000000e+00 1.000000000000e+00 0.000000000000e+00 0.000000000000e+00 0.000000000000e+00 0.000000000000e+00 1.000000000000e+00 0.000000000000e+00 0.000000000000e+00 0.000000000000e+00 0.000000000000e+00 1.000000000000e+00 0 
M u leg2.r 1.000000000000e+00 0.000000000000e+00 0.000000000000e+00 0.000000000000e+00 0.000000000000e+00 1.000000000000e+00 0.000000000000e+00 0.000000000000e+00 0.000000000000e+00 0.000000000000e+00 1.000000000000e+00 0.000000000000e+00 0.000000000000e+00 0.000000000000e+00 0.000000000000e+00 1.000000000000e+00 0 
M u leg3.r 1.000000000000e+00 0.000000000000e+00 0.000000000000e+00 0.000000000000e+00 0.000000000000e+00 1.000000000000e+00 0.000000000000e+00 0.000000000000e+00 0.000000000000e+00 0.000000000000e+00 1.000000000000e+00 0.000000000000e+00 0.000000000000e+00 0.000000000000e+00 0.000000000000e+00 1.000000000000e+00 0 
M u ground.r 1.000000000000e+00 0.000000000000e+00 0.000000000000e+00 0.000000000000e+00 0.000000000000e+00 1.000000000000e+00 0.000000000000e+00 0.000000000000e+00 0.000000000000e+00 0.000000000000e+00 1.000000000000e+00 0.000000000000e+00 0.000000000000e+00 0.000000000000e+00 0.000000000000e+00 1.000000000000e+00 0 
M u shell.r 1.000000000000e+00 0.000000000000e+00 0.000000000000e+00 0.000000000000e+00 0.000000000000e+00 1.000000000000e+00 0.000000000000e+00 0.000000000000e+00 0.000000000000e+00 0.000000000000e+00 1.000000000000e+00 0.000000000000e+00 0.000000000000e+00 0.000000000000e+00 0.000000000000e+00 1.000000000000e+00 0 
