I 5 v4
Untitled MGED Database
C Y ground.r 1000 0 1 0 1 100 0 0 0 0 1 1 0 
stack
camo o=2 s=100000; turbump s=20000; plastic sp=.1 di=.7
M u terra.s 1.000000000000e+00 0.000000000000e+00 0.000000000000e+00 0.000000000000e+00 0.000000000000e+00 1.000000000000e+00 0.000000000000e+00 0.000000000000e+00 0.000000000000e+00 0.000000000000e+00 1.000000000000e+00 0.000000000000e+00 0.000000000000e+00 0.000000000000e+00 0.000000000000e+00 1.000000000000e+00 0 
s dsp terra.no_sm file="terra.dsp" sm=0 w=256 n=256 stom=100000,0,0,0,0,100000,0,0,0,0,25,0,0,0,0,1
S 20 water.s 0 2.560000000000e+07 0.000000000000e+00 0.000000000000e+00 0.000000000000e+00 2.560000000000e+07 0.000000000000e+00 0.000000000000e+00 2.560000000000e+07 1.187252625000e+06 0.000000000000e+00 0.000000000000e+00 1.187252625000e+06 -2.560000000000e+07 0.000000000000e+00 0.000000000000e+00 -2.560000000000e+07 2.560000000000e+07 0.000000000000e+00 -2.560000000000e+07 2.560000000000e+07 1.187252625000e+06 -2.560000000000e+07 0.000000000000e+00 1.187252625000e+06 
C Y water.r 1001 0 2 0 1 100 1 114 147 163 1 1 0 
stack
turbump s=100000; glass tr=0 re=0.4
M u water.s 1.000000000000e+00 0.000000000000e+00 0.000000000000e+00 0.000000000000e+00 0.000000000000e+00 1.000000000000e+00 0.000000000000e+00 0.000000000000e+00 0.000000000000e+00 0.000000000000e+00 1.000000000000e+00 0.000000000000e+00 0.000000000000e+00 0.000000000000e+00 0.000000000000e+00 1.000000000000e+00 0 
M - terra.s 1.000000000000e+00 0.000000000000e+00 0.000000000000e+00 0.000000000000e+00 0.000000000000e+00 1.000000000000e+00 0.000000000000e+00 0.000000000000e+00 0.000000000000e+00 0.000000000000e+00 1.000000000000e+00 0.000000000000e+00 0.000000000000e+00 0.000000000000e+00 0.000000000000e+00 1.000000000000e+00 0 
s dsp terra.s file="terra.dsp" sm=1 w=256 n=256 stom=100000,0,0,0,0,100000,0,0,0,0,25,0,0,0,0,1
S 19 light.s 0 3.869340800000e+07 5.792957000000e+06 1.000000000000e+07 1.000000000000e+06 0.000000000000e+00 0.000000000000e+00 0.000000000000e+00 1.000000000000e+06 0.000000000000e+00 0.000000000000e+00 0.000000000000e+00 1.000000000000e+06 0.000000000000e+00 0.000000000000e+00 0.000000000000e+00 0.000000000000e+00 0.000000000000e+00 0.000000000000e+00 0.000000000000e+00 0.000000000000e+00 0.000000000000e+00 0.000000000000e+00 0.000000000000e+00 0.000000000000e+00 
C Y light.r 1002 0 1 0 1 100 1 250 253 191 1 0 0 
light
M u light.s 1.000000000000e+00 0.000000000000e+00 0.000000000000e+00 0.000000000000e+00 0.000000000000e+00 1.000000000000e+00 0.000000000000e+00 0.000000000000e+00 0.000000000000e+00 0.000000000000e+00 1.000000000000e+00 0.000000000000e+00 0.000000000000e+00 0.000000000000e+00 0.000000000000e+00 1.000000000000e+00 0 
S 19 air.s 0 1.243141400000e+07 1.273688900000e+07 -3.782028437500e+05 4.671973200000e+07 0.000000000000e+00 0.000000000000e+00 0.000000000000e+00 5.031281200000e+07 0.000000000000e+00 0.000000000000e+00 0.000000000000e+00 4.440296500000e+06 0.000000000000e+00 0.000000000000e+00 0.000000000000e+00 0.000000000000e+00 0.000000000000e+00 0.000000000000e+00 0.000000000000e+00 0.000000000000e+00 0.000000000000e+00 0.000000000000e+00 0.000000000000e+00 0.000000000000e+00 
C Y air.r 1002 1 3 0 1 100 1 167 197 216 1 1 0 
air
dpm=0.00004
M u air.s 1.000000000000e+00 0.000000000000e+00 0.000000000000e+00 0.000000000000e+00 0.000000000000e+00 1.000000000000e+00 0.000000000000e+00 0.000000000000e+00 0.000000000000e+00 0.000000000000e+00 1.000000000000e+00 0.000000000000e+00 0.000000000000e+00 0.000000000000e+00 0.000000000000e+00 1.000000000000e+00 0 
M - water.s 1.000000000000e+00 0.000000000000e+00 0.000000000000e+00 0.000000000000e+00 0.000000000000e+00 1.000000000000e+00 0.000000000000e+00 0.000000000000e+00 0.000000000000e+00 0.000000000000e+00 1.000000000000e+00 0.000000000000e+00 0.000000000000e+00 0.000000000000e+00 0.000000000000e+00 1.000000000000e+00 0 
M - terra.s 1.000000000000e+00 0.000000000000e+00 0.000000000000e+00 0.000000000000e+00 0.000000000000e+00 1.000000000000e+00 0.000000000000e+00 0.000000000000e+00 0.000000000000e+00 0.000000000000e+00 1.000000000000e+00 0.000000000000e+00 0.000000000000e+00 0.000000000000e+00 0.000000000000e+00 1.000000000000e+00 0 
C N all.g 0 0 4 0 0 0 0 0 0 0 0 0 0 
M u air.r 1.000000000000e+00 0.000000000000e+00 0.000000000000e+00 0.000000000000e+00 0.000000000000e+00 1.000000000000e+00 0.000000000000e+00 0.000000000000e+00 0.000000000000e+00 0.000000000000e+00 1.000000000000e+00 0.000000000000e+00 0.000000000000e+00 0.000000000000e+00 0.000000000000e+00 1.000000000000e+00 0 
M u light.r 1.000000000000e+00 0.000000000000e+00 0.000000000000e+00 0.000000000000e+00 0.000000000000e+00 1.000000000000e+00 0.000000000000e+00 0.000000000000e+00 0.000000000000e+00 0.000000000000e+00 1.000000000000e+00 0.000000000000e+00 0.000000000000e+00 0.000000000000e+00 0.000000000000e+00 1.000000000000e+00 0 
M u water.r 1.000000000000e+00 0.000000000000e+00 0.000000000000e+00 0.000000000000e+00 0.000000000000e+00 1.000000000000e+00 0.000000000000e+00 0.000000000000e+00 0.000000000000e+00 0.000000000000e+00 1.000000000000e+00 0.000000000000e+00 0.000000000000e+00 0.000000000000e+00 0.000000000000e+00 1.000000000000e+00 0 
M u ground.r 1.000000000000e+00 0.000000000000e+00 0.000000000000e+00 0.000000000000e+00 0.000000000000e+00 1.000000000000e+00 0.000000000000e+00 0.000000000000e+00 0.000000000000e+00 0.000000000000e+00 1.000000000000e+00 0.000000000000e+00 0.000000000000e+00 0.000000000000e+00 0.000000000000e+00 1.000000000000e+00 0 
