I 0 v4
X,Y,Z Coordinate Axis 
S 20 arb8 1 1.000000000000e+00 -1.000000000000e+00 -1.000000000000e+00 0.000000000000e+00 2.000000000000e+00 0.000000000000e+00 0.000000000000e+00 2.000000000000e+00 2.000000000000e+00 0.000000000000e+00 0.000000000000e+00 2.000000000000e+00 -2.000000000000e+00 0.000000000000e+00 0.000000000000e+00 -2.000000000000e+00 2.000000000000e+00 0.000000000000e+00 -2.000000000000e+00 2.000000000000e+00 2.000000000000e+00 -2.000000000000e+00 0.000000000000e+00 2.000000000000e+00 
S 20 arb7 2 0.000000000000e+00 0.000000000000e+00 0.000000000000e+00 0.000000000000e+00 1.000000000000e+00 0.000000000000e+00 0.000000000000e+00 1.000000000000e+00 1.000000000000e+00 0.000000000000e+00 0.000000000000e+00 5.000000000000e-01 -1.000000000000e+00 0.000000000000e+00 0.000000000000e+00 -1.000000000000e+00 1.000000000000e+00 0.000000000000e+00 -1.000000000000e+00 1.000000000000e+00 5.000000000000e-01 -1.000000000000e+00 0.000000000000e+00 0.000000000000e+00 
S 20 arb5 3 0.000000000000e+00 0.000000000000e+00 0.000000000000e+00 0.000000000000e+00 1.000000000000e+00 0.000000000000e+00 0.000000000000e+00 1.000000000000e+00 1.000000000000e+00 0.000000000000e+00 0.000000000000e+00 1.000000000000e+00 -1.000000000000e+00 5.000000000000e-01 5.000000000000e-01 -1.000000000000e+00 5.000000000000e-01 5.000000000000e-01 -1.000000000000e+00 5.000000000000e-01 5.000000000000e-01 -1.000000000000e+00 5.000000000000e-01 5.000000000000e-01 
S 19 ellg 4 -3.908158093691e-02 1.049340438843e+01 0.000000000000e+00 1.000000000000e+00 0.000000000000e+00 0.000000000000e+00 0.000000000000e+00 3.535533845425e-01 -3.535533845425e-01 0.000000000000e+00 3.535533845425e-01 3.535533845425e-01 0.000000000000e+00 0.000000000000e+00 0.000000000000e+00 0.000000000000e+00 0.000000000000e+00 0.000000000000e+00 0.000000000000e+00 0.000000000000e+00 0.000000000000e+00 0.000000000000e+00 0.000000000000e+00 0.000000000000e+00 
S 18 tgc 5 0.000000000000e+00 0.000000000000e+00 0.000000000000e+00 0.000000000000e+00 0.000000000000e+00 1.000000000000e+00 3.535533845425e-01 -3.535533845425e-01 0.000000000000e+00 3.535533845425e-01 3.535533845425e-01 0.000000000000e+00 3.535533845425e-01 -3.535533845425e-01 0.000000000000e+00 3.535533845425e-01 3.535533845425e-01 0.000000000000e+00 0.000000000000e+00 0.000000000000e+00 0.000000000000e+00 0.000000000000e+00 0.000000000000e+00 0.000000000000e+00 
S 16 tor 6 0.000000000000e+00 0.000000000000e+00 0.000000000000e+00 0.000000000000e+00 2.000000029802e-01 0.000000000000e+00 -7.071067690849e-01 0.000000000000e+00 7.071067690849e-01 -7.071068286896e-01 0.000000000000e+00 -7.071068286896e-01 -5.656854510307e-01 0.000000000000e+00 5.656854510307e-01 -5.656853914261e-01 0.000000000000e+00 -5.656853914261e-01 -8.485280871391e-01 0.000000000000e+00 8.485280871391e-01 -8.485280871391e-01 0.000000000000e+00 -8.485280871391e-01 
S 18 x 5 0.000000000000e+00 0.000000000000e+00 0.000000000000e+00 1.000000000000e+01 0.000000000000e+00 0.000000000000e+00 0.000000000000e+00 -4.999999403954e-01 0.000000000000e+00 0.000000000000e+00 0.000000000000e+00 -4.999999403954e-01 0.000000000000e+00 -4.999999403954e-01 0.000000000000e+00 0.000000000000e+00 0.000000000000e+00 -4.999999403954e-01 0.000000000000e+00 0.000000000000e+00 0.000000000000e+00 0.000000000000e+00 0.000000000000e+00 0.000000000000e+00 
S 18 y 5 0.000000000000e+00 0.000000000000e+00 0.000000000000e+00 0.000000000000e+00 1.000000000000e+01 0.000000000000e+00 -5.000000000000e-01 0.000000000000e+00 0.000000000000e+00 0.000000000000e+00 0.000000000000e+00 5.000000000000e-01 -5.000000000000e-01 0.000000000000e+00 0.000000000000e+00 0.000000000000e+00 0.000000000000e+00 5.000000000000e-01 0.000000000000e+00 0.000000000000e+00 0.000000000000e+00 0.000000000000e+00 0.000000000000e+00 0.000000000000e+00 
S 18 z 5 0.000000000000e+00 0.000000000000e+00 0.000000000000e+00 0.000000000000e+00 0.000000000000e+00 1.000000000000e+01 -5.000000000000e-01 0.000000000000e+00 0.000000000000e+00 0.000000000000e+00 -5.000000000000e-01 0.000000000000e+00 -5.000000000000e-01 0.000000000000e+00 0.000000000000e+00 0.000000000000e+00 -5.000000000000e-01 0.000000000000e+00 0.000000000000e+00 0.000000000000e+00 0.000000000000e+00 0.000000000000e+00 0.000000000000e+00 0.000000000000e+00 
S 16 xx 6 1.127503585815e+01 -1.873362255363e-18 -4.885198548436e-02 0.000000000000e+00 2.000000029802e-01 0.000000000000e+00 -7.071067690849e-01 0.000000000000e+00 7.071067690849e-01 -7.071068286896e-01 0.000000000000e+00 -7.071068286896e-01 -5.656854510307e-01 0.000000000000e+00 5.656854510307e-01 -5.656853914261e-01 0.000000000000e+00 -5.656853914261e-01 -8.485280871391e-01 0.000000000000e+00 8.485280871391e-01 -8.485280871391e-01 0.000000000000e+00 -8.485280871391e-01 
S 19 yy 4 -4.885198548436e-02 1.050317478180e+01 0.000000000000e+00 1.000000000000e+00 0.000000000000e+00 0.000000000000e+00 0.000000000000e+00 3.535533845425e-01 -3.535533845425e-01 0.000000000000e+00 3.535533845425e-01 3.535533845425e-01 0.000000000000e+00 0.000000000000e+00 0.000000000000e+00 0.000000000000e+00 0.000000000000e+00 0.000000000000e+00 0.000000000000e+00 0.000000000000e+00 0.000000000000e+00 0.000000000000e+00 0.000000000000e+00 0.000000000000e+00 
S 20 zz 3 0.000000000000e+00 -5.390815734863e-01 1.001294517517e+01 0.000000000000e+00 1.000000000000e+00 0.000000000000e+00 0.000000000000e+00 1.000000000000e+00 1.000000000000e+00 0.000000000000e+00 0.000000000000e+00 1.000000000000e+00 -1.000000000000e+00 5.000000000000e-01 5.000000000000e-01 -1.000000000000e+00 5.000000000000e-01 5.000000000000e-01 -1.000000000000e+00 5.000000000000e-01 5.000000000000e-01 -1.000000000000e+00 5.000000000000e-01 5.000000000000e-01 
C N all 0 0 6 -5128 0 0 -1 127 63 124 
M u x.r 1.000000000000e+00 0.000000000000e+00 0.000000000000e+00 0.000000000000e+00 0.000000000000e+00 1.000000000000e+00 0.000000000000e+00 0.000000000000e+00 0.000000000000e+00 0.000000000000e+00 1.000000000000e+00 0.000000000000e+00 0.000000000000e+00 0.000000000000e+00 0.000000000000e+00 1.000000000000e+00 128 
M u xx.r 1.000000000000e+00 0.000000000000e+00 0.000000000000e+00 0.000000000000e+00 0.000000000000e+00 1.000000000000e+00 0.000000000000e+00 0.000000000000e+00 0.000000000000e+00 0.000000000000e+00 1.000000000000e+00 0.000000000000e+00 0.000000000000e+00 0.000000000000e+00 0.000000000000e+00 1.000000000000e+00 128 
M u y.r 1.000000000000e+00 0.000000000000e+00 0.000000000000e+00 0.000000000000e+00 0.000000000000e+00 1.000000000000e+00 0.000000000000e+00 0.000000000000e+00 0.000000000000e+00 0.000000000000e+00 1.000000000000e+00 0.000000000000e+00 0.000000000000e+00 0.000000000000e+00 0.000000000000e+00 1.000000000000e+00 128 
M u yy.r 1.000000000000e+00 0.000000000000e+00 0.000000000000e+00 0.000000000000e+00 0.000000000000e+00 1.000000000000e+00 0.000000000000e+00 0.000000000000e+00 0.000000000000e+00 0.000000000000e+00 1.000000000000e+00 0.000000000000e+00 0.000000000000e+00 0.000000000000e+00 0.000000000000e+00 1.000000000000e+00 128 
M u z.r 1.000000000000e+00 0.000000000000e+00 0.000000000000e+00 0.000000000000e+00 0.000000000000e+00 1.000000000000e+00 0.000000000000e+00 0.000000000000e+00 0.000000000000e+00 0.000000000000e+00 1.000000000000e+00 0.000000000000e+00 0.000000000000e+00 0.000000000000e+00 0.000000000000e+00 1.000000000000e+00 128 
M u zz.r 1.000000000000e+00 0.000000000000e+00 0.000000000000e+00 0.000000000000e+00 0.000000000000e+00 1.000000000000e+00 0.000000000000e+00 0.000000000000e+00 0.000000000000e+00 0.000000000000e+00 1.000000000000e+00 0.000000000000e+00 0.000000000000e+00 0.000000000000e+00 0.000000000000e+00 1.000000000000e+00 128 
S 20 X1 1 0.000000000000e+00 0.000000000000e+00 0.000000000000e+00 0.000000000000e+00 2.000000000000e+00 0.000000000000e+00 1.414213627577e-01 2.000000000000e+00 1.414213627577e-01 1.414213627577e-01 0.000000000000e+00 1.414213627577e-01 -1.414213538170e+00 0.000000000000e+00 1.414213538170e+00 -1.414213538170e+00 2.000000000000e+00 1.414213538170e+00 -1.272792220116e+00 2.000000000000e+00 1.555634856224e+00 -1.272792220116e+00 0.000000000000e+00 1.555634856224e+00 
S 20 X2 1 -1.269517779350e+00 0.000000000000e+00 -5.960464477539e-08 0.000000000000e+00 2.000000000000e+00 0.000000000000e+00 -1.414213627577e-01 2.000000000000e+00 1.414213627577e-01 -1.414213627577e-01 0.000000000000e+00 1.414213627577e-01 1.414213538170e+00 0.000000000000e+00 1.414213538170e+00 1.414213538170e+00 2.000000000000e+00 1.414213538170e+00 1.272792220116e+00 2.000000000000e+00 1.555634856224e+00 1.272792220116e+00 0.000000000000e+00 1.555634856224e+00 
C N X 0 0 2 -5128 0 0 -1 127 163 130 
M u X1 1.000000000000e+00 0.000000000000e+00 0.000000000000e+00 0.000000000000e+00 0.000000000000e+00 -4.371139183945e-08 -1.000000000000e+00 0.000000000000e+00 0.000000000000e+00 1.000000000000e+00 -4.371139183945e-08 0.000000000000e+00 0.000000000000e+00 0.000000000000e+00 0.000000000000e+00 1.000000000000e+00 128 
M u X2 1.000000000000e+00 0.000000000000e+00 0.000000000000e+00 0.000000000000e+00 0.000000000000e+00 -4.371139183945e-08 -1.000000000000e+00 0.000000000000e+00 0.000000000000e+00 1.000000000000e+00 -4.371139183945e-08 0.000000000000e+00 0.000000000000e+00 0.000000000000e+00 0.000000000000e+00 1.000000000000e+00 128 
S 20 Y1 1 0.000000000000e+00 0.000000000000e+00 0.000000000000e+00 0.000000000000e+00 2.000000000000e+00 0.000000000000e+00 1.414213627577e-01 2.000000000000e+00 1.414213627577e-01 1.414213627577e-01 0.000000000000e+00 1.414213627577e-01 -7.071068286896e-01 0.000000000000e+00 7.071068286896e-01 -7.071068286896e-01 2.000000000000e+00 7.071068286896e-01 -5.656854510307e-01 2.000000000000e+00 8.485282063484e-01 -5.656854510307e-01 0.000000000000e+00 8.485282063484e-01 
S 20 Y2 1 0.000000000000e+00 0.000000000000e+00 0.000000000000e+00 0.000000000000e+00 2.000000000000e+00 0.000000000000e+00 -1.414213627577e-01 2.000000000000e+00 1.414213627577e-01 -1.414213627577e-01 0.000000000000e+00 1.414213627577e-01 1.414213538170e+00 0.000000000000e+00 1.414213538170e+00 1.414213538170e+00 2.000000000000e+00 1.414213538170e+00 1.272792220116e+00 2.000000000000e+00 1.555634856224e+00 1.272792220116e+00 0.000000000000e+00 1.555634856224e+00 
C N Y -1 0 2 -18432 0 0 0 0 0 0 
M u Y1 1.000000000000e+00 0.000000000000e+00 0.000000000000e+00 7.188466191292e-01 0.000000000000e+00 1.000000000000e+00 0.000000000000e+00 0.000000000000e+00 0.000000000000e+00 0.000000000000e+00 1.000000000000e+00 7.280318737030e-01 0.000000000000e+00 0.000000000000e+00 0.000000000000e+00 1.000000000000e+00 31481 
M u Y2 1.000000000000e+00 0.000000000000e+00 0.000000000000e+00 0.000000000000e+00 0.000000000000e+00 1.000000000000e+00 0.000000000000e+00 0.000000000000e+00 0.000000000000e+00 0.000000000000e+00 1.000000000000e+00 0.000000000000e+00 0.000000000000e+00 0.000000000000e+00 0.000000000000e+00 1.000000000000e+00 31481 
C N axis 0 0 6 -5128 0 0 -1 127 163 130 
M u x.r 1.000000000000e+00 0.000000000000e+00 0.000000000000e+00 0.000000000000e+00 0.000000000000e+00 1.000000000000e+00 0.000000000000e+00 0.000000000000e+00 0.000000000000e+00 0.000000000000e+00 1.000000000000e+00 0.000000000000e+00 0.000000000000e+00 0.000000000000e+00 0.000000000000e+00 1.000000000000e+00 128 
M u y.r 1.000000000000e+00 0.000000000000e+00 0.000000000000e+00 0.000000000000e+00 0.000000000000e+00 1.000000000000e+00 0.000000000000e+00 0.000000000000e+00 0.000000000000e+00 0.000000000000e+00 1.000000000000e+00 0.000000000000e+00 0.000000000000e+00 0.000000000000e+00 0.000000000000e+00 1.000000000000e+00 128 
M u X.r 1.000000000000e+00 0.000000000000e+00 0.000000000000e+00 1.141232109070e+01 0.000000000000e+00 1.000000000000e+00 0.000000000000e+00 7.823973894119e-01 0.000000000000e+00 0.000000000000e+00 1.000000000000e+00 -1.053126573563e+00 0.000000000000e+00 0.000000000000e+00 0.000000000000e+00 1.000000000000e+00 128 
M u Y.r 1.000000000000e+00 0.000000000000e+00 0.000000000000e+00 -5.997571945190e-01 0.000000000000e+00 -4.371139183945e-08 1.000000000000e+00 1.004292011261e+01 0.000000000000e+00 -1.000000000000e+00 -4.371139183945e-08 9.926719665527e-01 0.000000000000e+00 0.000000000000e+00 0.000000000000e+00 1.000000000000e+00 128 
M u z.r 1.000000000000e+00 0.000000000000e+00 0.000000000000e+00 0.000000000000e+00 0.000000000000e+00 1.000000000000e+00 0.000000000000e+00 0.000000000000e+00 0.000000000000e+00 0.000000000000e+00 1.000000000000e+00 0.000000000000e+00 0.000000000000e+00 0.000000000000e+00 0.000000000000e+00 1.000000000000e+00 128 
M u Z.r 1.000000000000e+00 0.000000000000e+00 0.000000000000e+00 -7.615451216698e-01 0.000000000000e+00 1.000000000000e+00 0.000000000000e+00 -6.248641610146e-01 0.000000000000e+00 0.000000000000e+00 1.000000000000e+00 1.003262996674e+01 0.000000000000e+00 0.000000000000e+00 0.000000000000e+00 1.000000000000e+00 128 
S 20 Z2 1 0.000000000000e+00 0.000000000000e+00 0.000000000000e+00 8.742278367890e-08 -8.781741135601e-17 2.000000000000e+00 1.414214372635e-01 -1.414213627577e-01 2.000000000000e+00 1.414213627577e-01 -1.414213627577e-01 -6.181724021559e-09 1.414213418961e+00 1.414213418961e+00 -6.181723932741e-08 1.414213538170e+00 1.414213418961e+00 1.999999880791e+00 1.555634856224e+00 1.272792100906e+00 1.999999880791e+00 1.555634737015e+00 1.272792100906e+00 -6.799896112852e-08 
C N Z -1 0 3 0 0 0 -1 127 12 236 
M u Z1 1.000000000000e+00 0.000000000000e+00 0.000000000000e+00 0.000000000000e+00 0.000000000000e+00 1.000000000000e+00 0.000000000000e+00 0.000000000000e+00 0.000000000000e+00 0.000000000000e+00 1.000000000000e+00 0.000000000000e+00 0.000000000000e+00 0.000000000000e+00 0.000000000000e+00 1.000000000000e+00 31481 
M u Z2 1.000000000000e+00 0.000000000000e+00 0.000000000000e+00 0.000000000000e+00 0.000000000000e+00 1.000000000000e+00 0.000000000000e+00 0.000000000000e+00 0.000000000000e+00 0.000000000000e+00 1.000000000000e+00 0.000000000000e+00 0.000000000000e+00 0.000000000000e+00 0.000000000000e+00 1.000000000000e+00 31481 
M u Z3 1.000000000000e+00 0.000000000000e+00 0.000000000000e+00 5.510574206710e-02 0.000000000000e+00 1.000000000000e+00 0.000000000000e+00 1.463562846184e+00 0.000000000000e+00 0.000000000000e+00 1.000000000000e+00 0.000000000000e+00 0.000000000000e+00 0.000000000000e+00 0.000000000000e+00 1.000000000000e+00 31481 
S 20 Z1 1 0.000000000000e+00 0.000000000000e+00 0.000000000000e+00 6.181723932741e-08 -6.181723932741e-08 2.000000000000e+00 6.181723932741e-08 -2.000000774860e-01 2.000000000000e+00 0.000000000000e+00 -2.000000029802e-01 -6.181724021559e-09 1.500000000000e+00 0.000000000000e+00 -4.636292771920e-08 1.500000119209e+00 -6.181723932741e-08 2.000000000000e+00 1.500000119209e+00 -2.000000774860e-01 2.000000000000e+00 1.500000000000e+00 -2.000000029802e-01 -5.254465662574e-08 
S 20 Z3 1 0.000000000000e+00 0.000000000000e+00 0.000000000000e+00 6.181723932741e-08 -6.181723932741e-08 2.000000000000e+00 6.181723932741e-08 -2.000000774860e-01 2.000000000000e+00 0.000000000000e+00 -2.000000029802e-01 -6.181724021559e-09 1.500000000000e+00 0.000000000000e+00 -4.636292771920e-08 1.500000119209e+00 -6.181723932741e-08 2.000000000000e+00 1.500000119209e+00 -2.000000774860e-01 2.000000000000e+00 1.500000000000e+00 -2.000000029802e-01 -5.254465662574e-08 
C Y x.r 1000 0 1 0 1 100 1 255 0 0 1 
plastic
M u x 1.000000000000e+00 0.000000000000e+00 0.000000000000e+00 0.000000000000e+00 0.000000000000e+00 1.000000000000e+00 0.000000000000e+00 0.000000000000e+00 0.000000000000e+00 0.000000000000e+00 1.000000000000e+00 0.000000000000e+00 0.000000000000e+00 0.000000000000e+00 0.000000000000e+00 1.000000000000e+00 0 
C Y y.r 1001 0 1 -31704 1 100 1 0 255 0 1 
plastic
M u y 1.000000000000e+00 0.000000000000e+00 0.000000000000e+00 0.000000000000e+00 0.000000000000e+00 1.000000000000e+00 0.000000000000e+00 0.000000000000e+00 0.000000000000e+00 0.000000000000e+00 1.000000000000e+00 0.000000000000e+00 0.000000000000e+00 0.000000000000e+00 0.000000000000e+00 1.000000000000e+00 0 
C Y z.r 1002 0 1 0 1 100 1 0 0 255 1 
plastic
M u z 1.000000000000e+00 0.000000000000e+00 0.000000000000e+00 0.000000000000e+00 0.000000000000e+00 1.000000000000e+00 0.000000000000e+00 0.000000000000e+00 0.000000000000e+00 0.000000000000e+00 1.000000000000e+00 0.000000000000e+00 0.000000000000e+00 0.000000000000e+00 0.000000000000e+00 1.000000000000e+00 0 
C Y X.r 1003 0 1 -31704 1 100 1 255 0 0 1 
plastic
M u X 1.000000000000e+00 0.000000000000e+00 0.000000000000e+00 0.000000000000e+00 0.000000000000e+00 1.000000000000e+00 0.000000000000e+00 0.000000000000e+00 0.000000000000e+00 0.000000000000e+00 1.000000000000e+00 0.000000000000e+00 0.000000000000e+00 0.000000000000e+00 0.000000000000e+00 1.000000000000e+00 0 
C Y Y.r 1004 0 1 0 1 100 0 0 0 0 1 
plastic
M u Y 1.000000000000e+00 0.000000000000e+00 0.000000000000e+00 0.000000000000e+00 0.000000000000e+00 1.000000000000e+00 0.000000000000e+00 0.000000000000e+00 0.000000000000e+00 0.000000000000e+00 1.000000000000e+00 0.000000000000e+00 0.000000000000e+00 0.000000000000e+00 0.000000000000e+00 1.000000000000e+00 0 
C Y Z.r 1005 0 1 0 1 100 1 0 0 255 1 
plastic
M u Z 1.000000000000e+00 0.000000000000e+00 0.000000000000e+00 0.000000000000e+00 0.000000000000e+00 1.000000000000e+00 0.000000000000e+00 0.000000000000e+00 0.000000000000e+00 0.000000000000e+00 1.000000000000e+00 0.000000000000e+00 0.000000000000e+00 0.000000000000e+00 0.000000000000e+00 1.000000000000e+00 0 
C Y xx.r 1000 0 1 0 1 100 1 255 0 0 1 
plastic
M u xx 1.000000000000e+00 0.000000000000e+00 0.000000000000e+00 0.000000000000e+00 0.000000000000e+00 1.000000000000e+00 0.000000000000e+00 0.000000000000e+00 0.000000000000e+00 0.000000000000e+00 1.000000000000e+00 0.000000000000e+00 0.000000000000e+00 0.000000000000e+00 0.000000000000e+00 1.000000000000e+00 0 
C Y yy.r 1001 0 1 0 1 100 1 0 255 0 1 
plastic
M u yy 1.000000000000e+00 0.000000000000e+00 0.000000000000e+00 0.000000000000e+00 0.000000000000e+00 1.000000000000e+00 0.000000000000e+00 0.000000000000e+00 0.000000000000e+00 0.000000000000e+00 1.000000000000e+00 0.000000000000e+00 0.000000000000e+00 0.000000000000e+00 0.000000000000e+00 1.000000000000e+00 0 
C Y zz.r 1003 0 1 0 1 100 1 0 0 255 1 
plastic
M u zz 1.000000000000e+00 0.000000000000e+00 0.000000000000e+00 0.000000000000e+00 0.000000000000e+00 1.000000000000e+00 0.000000000000e+00 0.000000000000e+00 0.000000000000e+00 0.000000000000e+00 1.000000000000e+00 0.000000000000e+00 0.000000000000e+00 0.000000000000e+00 0.000000000000e+00 1.000000000000e+00 0 
