I 1 v4
Primitive Objects
S 20 arb8 1 1.000000000000e+00 -1.000000000000e+00 -1.000000000000e+00 0.000000000000e+00 2.000000000000e+00 0.000000000000e+00 0.000000000000e+00 2.000000000000e+00 2.000000000000e+00 0.000000000000e+00 0.000000000000e+00 2.000000000000e+00 -2.000000000000e+00 0.000000000000e+00 0.000000000000e+00 -2.000000000000e+00 2.000000000000e+00 0.000000000000e+00 -2.000000000000e+00 2.000000000000e+00 2.000000000000e+00 -2.000000000000e+00 0.000000000000e+00 2.000000000000e+00 
S 20 arb7 2 0.000000000000e+00 0.000000000000e+00 0.000000000000e+00 0.000000000000e+00 1.000000000000e+00 0.000000000000e+00 0.000000000000e+00 1.000000000000e+00 1.000000000000e+00 0.000000000000e+00 0.000000000000e+00 5.000000000000e-01 -1.000000000000e+00 0.000000000000e+00 0.000000000000e+00 -1.000000000000e+00 1.000000000000e+00 0.000000000000e+00 -1.000000000000e+00 1.000000000000e+00 5.000000000000e-01 -1.000000000000e+00 0.000000000000e+00 0.000000000000e+00 
S 20 arb5 3 0.000000000000e+00 0.000000000000e+00 0.000000000000e+00 0.000000000000e+00 1.000000000000e+00 0.000000000000e+00 0.000000000000e+00 1.000000000000e+00 1.000000000000e+00 0.000000000000e+00 0.000000000000e+00 1.000000000000e+00 -1.000000000000e+00 5.000000000000e-01 5.000000000000e-01 -1.000000000000e+00 5.000000000000e-01 5.000000000000e-01 -1.000000000000e+00 5.000000000000e-01 5.000000000000e-01 -1.000000000000e+00 5.000000000000e-01 5.000000000000e-01 
S 19 ellg 4 0.000000000000e+00 0.000000000000e+00 0.000000000000e+00 1.000000000000e+00 0.000000000000e+00 0.000000000000e+00 0.000000000000e+00 3.535533845425e-01 -3.535533845425e-01 0.000000000000e+00 3.535533845425e-01 3.535533845425e-01 0.000000000000e+00 0.000000000000e+00 0.000000000000e+00 0.000000000000e+00 0.000000000000e+00 0.000000000000e+00 0.000000000000e+00 0.000000000000e+00 0.000000000000e+00 0.000000000000e+00 0.000000000000e+00 0.000000000000e+00 
S 18 tgc 5 0.000000000000e+00 0.000000000000e+00 0.000000000000e+00 0.000000000000e+00 0.000000000000e+00 1.000000000000e+00 3.535533845425e-01 -3.535533845425e-01 0.000000000000e+00 3.535533845425e-01 3.535533845425e-01 0.000000000000e+00 3.535533845425e-01 -3.535533845425e-01 0.000000000000e+00 3.535533845425e-01 3.535533845425e-01 0.000000000000e+00 0.000000000000e+00 0.000000000000e+00 0.000000000000e+00 0.000000000000e+00 0.000000000000e+00 0.000000000000e+00 
S 16 tor 6 0.000000000000e+00 0.000000000000e+00 0.000000000000e+00 0.000000000000e+00 2.000000029802e-01 0.000000000000e+00 -7.071067690849e-01 0.000000000000e+00 7.071067690849e-01 -7.071068286896e-01 0.000000000000e+00 -7.071068286896e-01 -5.656854510307e-01 0.000000000000e+00 5.656854510307e-01 -5.656853914261e-01 0.000000000000e+00 -5.656853914261e-01 -8.485281467438e-01 0.000000000000e+00 8.485281467438e-01 -8.485281467438e-01 0.000000000000e+00 -8.485281467438e-01 
