I 0 v4
Moss's World
S 20 arb8 1 1.000000000000e+00 -1.000000000000e+00 -1.000000000000e+00 0.000000000000e+00 2.000000000000e+00 0.000000000000e+00 0.000000000000e+00 2.000000000000e+00 2.000000000000e+00 0.000000000000e+00 0.000000000000e+00 2.000000000000e+00 -2.000000000000e+00 0.000000000000e+00 0.000000000000e+00 -2.000000000000e+00 2.000000000000e+00 0.000000000000e+00 -2.000000000000e+00 2.000000000000e+00 2.000000000000e+00 -2.000000000000e+00 0.000000000000e+00 2.000000000000e+00 
S 20 arb7 2 0.000000000000e+00 0.000000000000e+00 0.000000000000e+00 0.000000000000e+00 1.000000000000e+00 0.000000000000e+00 0.000000000000e+00 1.000000000000e+00 1.000000000000e+00 0.000000000000e+00 0.000000000000e+00 5.000000000000e-01 -1.000000000000e+00 0.000000000000e+00 0.000000000000e+00 -1.000000000000e+00 1.000000000000e+00 0.000000000000e+00 -1.000000000000e+00 1.000000000000e+00 5.000000000000e-01 -1.000000000000e+00 0.000000000000e+00 0.000000000000e+00 
S 20 arb5 3 0.000000000000e+00 0.000000000000e+00 0.000000000000e+00 0.000000000000e+00 1.000000000000e+00 0.000000000000e+00 0.000000000000e+00 1.000000000000e+00 1.000000000000e+00 0.000000000000e+00 0.000000000000e+00 1.000000000000e+00 -1.000000000000e+00 5.000000000000e-01 5.000000000000e-01 -1.000000000000e+00 5.000000000000e-01 5.000000000000e-01 -1.000000000000e+00 5.000000000000e-01 5.000000000000e-01 -1.000000000000e+00 5.000000000000e-01 5.000000000000e-01 
S 19 ellg 4 0.000000000000e+00 0.000000000000e+00 0.000000000000e+00 1.000000000000e+00 0.000000000000e+00 0.000000000000e+00 0.000000000000e+00 3.535533845425e-01 -3.535533845425e-01 0.000000000000e+00 3.535533845425e-01 3.535533845425e-01 0.000000000000e+00 0.000000000000e+00 0.000000000000e+00 0.000000000000e+00 0.000000000000e+00 0.000000000000e+00 0.000000000000e+00 0.000000000000e+00 0.000000000000e+00 0.000000000000e+00 0.000000000000e+00 0.000000000000e+00 
S 16 tor 6 4.411999881268e-01 1.726799964905e+00 1.000000000000e+00 -1.480658887886e-03 6.599890589714e-01 3.507326822728e-03 -9.773457050323e-01 -1.731876656413e-02 2.846856832504e+00 -2.846904516220e+00 -1.196391414851e-03 -9.773625135422e-01 -7.630442380905e-01 -1.352221239358e-02 2.222629070282e+00 -2.222664833069e+00 -9.329363238066e-04 -7.630587220192e-01 -1.191645026207e+00 -2.111652493477e-02 3.471085548401e+00 -3.471140384674e+00 -1.457385369577e-03 -1.191671133041e+00 
S 20 platform.s 1 2.500000000000e+00 -1.969099998474e+00 -9.358000159264e-01 0.000000000000e+00 4.177404880524e+00 0.000000000000e+00 0.000000000000e+00 4.177404880524e+00 2.088703364134e-01 0.000000000000e+00 0.000000000000e+00 2.088703364134e-01 -4.177404880524e+00 0.000000000000e+00 0.000000000000e+00 -4.177404880524e+00 4.177404880524e+00 0.000000000000e+00 -4.177404880524e+00 4.177404880524e+00 2.088703364134e-01 -4.177404880524e+00 0.000000000000e+00 2.088703364134e-01 
S 20 box.s 1 2.485569238663e+00 1.133329510689e+00 -5.756493806839e-01 0.000000000000e+00 1.054832577705e+00 0.000000000000e+00 0.000000000000e+00 1.054832577705e+00 1.054832577705e+00 0.000000000000e+00 0.000000000000e+00 1.054832577705e+00 -1.054832577705e+00 0.000000000000e+00 0.000000000000e+00 -1.054832577705e+00 1.054832577705e+00 0.000000000000e+00 -1.054832577705e+00 1.054832577705e+00 1.054832577705e+00 -1.054832577705e+00 0.000000000000e+00 1.054832577705e+00 
S 18 cone.s 5 4.271221458912e-01 9.501944780350e-01 -7.011613249779e-01 0.000000000000e+00 0.000000000000e+00 1.472641468048e+00 3.681231141090e-01 -3.681231141090e-01 0.000000000000e+00 3.681231141090e-01 3.681231141090e-01 0.000000000000e+00 5.054797604680e-02 -5.054797604680e-02 0.000000000000e+00 4.268661886454e-02 4.268661886454e-02 0.000000000000e+00 0.000000000000e+00 0.000000000000e+00 0.000000000000e+00 0.000000000000e+00 0.000000000000e+00 0.000000000000e+00 
S 19 ellipse.s 4 4.176878929138e-01 -1.361524015665e-01 8.596062064171e-01 1.149999856949e+00 0.000000000000e+00 0.000000000000e+00 0.000000000000e+00 8.131727576256e-01 -8.131727576256e-01 0.000000000000e+00 8.131727576256e-01 8.131727576256e-01 0.000000000000e+00 0.000000000000e+00 0.000000000000e+00 0.000000000000e+00 0.000000000000e+00 0.000000000000e+00 0.000000000000e+00 0.000000000000e+00 0.000000000000e+00 0.000000000000e+00 0.000000000000e+00 0.000000000000e+00 
C Y platform.r 1000 0 1 -16081 1 0 97 142 0 0 0 0 0 
M + platform.s 1.000000000000e+00 0.000000000000e+00 0.000000000000e+00 0.000000000000e+00 0.000000000000e+00 1.000000000000e+00 0.000000000000e+00 0.000000000000e+00 0.000000000000e+00 0.000000000000e+00 1.000000000000e+00 0.000000000000e+00 0.000000000000e+00 0.000000000000e+00 0.000000000000e+00 1.000000000000e+00 16268 
C Y box.r 2000 0 1 -16558 2 0 -94 20 0 0 0 0 0 
M + box.s 1.000000000000e+00 0.000000000000e+00 0.000000000000e+00 0.000000000000e+00 0.000000000000e+00 1.000000000000e+00 0.000000000000e+00 0.000000000000e+00 0.000000000000e+00 0.000000000000e+00 1.000000000000e+00 0.000000000000e+00 0.000000000000e+00 0.000000000000e+00 0.000000000000e+00 1.000000000000e+00 16519 
C Y tor.r 6000 0 1 -16219 1 0 -81 206 0 0 0 0 0 
M + tor 1.000000000000e+00 0.000000000000e+00 0.000000000000e+00 0.000000000000e+00 0.000000000000e+00 1.000000000000e+00 0.000000000000e+00 0.000000000000e+00 0.000000000000e+00 0.000000000000e+00 1.000000000000e+00 0.000000000000e+00 0.000000000000e+00 0.000000000000e+00 0.000000000000e+00 1.000000000000e+00 16473 
S 19 ball_1.s 4 6.482486724854e-01 -9.028781652451e-01 1.635632634163e+00 5.409697890282e-01 0.000000000000e+00 0.000000000000e+00 0.000000000000e+00 3.444140851498e-01 -3.444140851498e-01 0.000000000000e+00 3.444141149521e-01 3.444141149521e-01 0.000000000000e+00 0.000000000000e+00 0.000000000000e+00 0.000000000000e+00 0.000000000000e+00 0.000000000000e+00 0.000000000000e+00 0.000000000000e+00 0.000000000000e+00 0.000000000000e+00 0.000000000000e+00 0.000000000000e+00 
S 18 para.s 5 0.000000000000e+00 0.000000000000e+00 0.000000000000e+00 4.321180284023e-02 1.010834518820e-02 2.406879901886e+00 2.121320247650e+00 -2.121320247650e+00 0.000000000000e+00 2.121320247650e+00 2.121320247650e+00 0.000000000000e+00 2.121320247650e+00 -2.121320247650e+00 0.000000000000e+00 2.121320247650e+00 2.121320247650e+00 0.000000000000e+00 0.000000000000e+00 0.000000000000e+00 0.000000000000e+00 0.000000000000e+00 0.000000000000e+00 0.000000000000e+00 
S 20 cut_para.s 1 -1.320321083069e+00 2.666214227676e+00 -4.445495009422e-01 3.640875339508e+00 -4.769069671631e+00 0.000000000000e+00 3.640875339508e+00 -4.769069671631e+00 3.175880193710e+00 0.000000000000e+00 0.000000000000e+00 3.175880193710e+00 -2.524330615997e+00 -1.927162647247e+00 0.000000000000e+00 1.116544723511e+00 -6.696232318878e+00 0.000000000000e+00 1.116544723511e+00 -6.696232318878e+00 3.175880193710e+00 -2.524330615997e+00 -1.927162647247e+00 3.175880193710e+00 
S 18 para_in.s 5 0.000000000000e+00 0.000000000000e+00 -1.000000014901e-01 4.882265999913e-02 1.142086833715e-02 2.719402790070e+00 1.909188151360e+00 -1.909188032150e+00 0.000000000000e+00 1.909188270569e+00 1.909187912941e+00 0.000000000000e+00 1.909188151360e+00 -1.909188032150e+00 0.000000000000e+00 1.909188270569e+00 1.909187912941e+00 0.000000000000e+00 0.000000000000e+00 0.000000000000e+00 0.000000000000e+00 0.000000000000e+00 0.000000000000e+00 0.000000000000e+00 
C Y para_mirror.r 9000 0 2 0 1 0 0 0 48 62 0 0 0 
M + para.s 1.000000000000e+00 0.000000000000e+00 0.000000000000e+00 3.596742749214e-01 0.000000000000e+00 1.000000000000e+00 0.000000000000e+00 1.955626308918e-01 0.000000000000e+00 0.000000000000e+00 1.000000000000e+00 -8.618203723468e-18 0.000000000000e+00 0.000000000000e+00 0.000000000000e+00 1.000000000000e+00 0 
M - para_in.s 1.000000000000e+00 0.000000000000e+00 0.000000000000e+00 3.596742749214e-01 0.000000000000e+00 1.000000000000e+00 0.000000000000e+00 1.955626308918e-01 0.000000000000e+00 0.000000000000e+00 1.000000000000e+00 -8.618203723468e-18 0.000000000000e+00 0.000000000000e+00 0.000000000000e+00 1.000000000000e+00 0 
S 18 cone_in.s 5 4.271221458912e-01 9.501944780350e-01 -6.011613011360e-01 0.000000000000e+00 0.000000000000e+00 1.272641420364e+00 2.726321518421e-01 -2.726321518421e-01 0.000000000000e+00 2.719408273697e-01 2.719408273697e-01 0.000000000000e+00 -1.812993781641e-03 1.812993781641e-03 0.000000000000e+00 -9.298007003963e-03 -9.298007003963e-03 0.000000000000e+00 0.000000000000e+00 0.000000000000e+00 0.000000000000e+00 0.000000000000e+00 0.000000000000e+00 0.000000000000e+00 
C Y cone.r 3000 0 2 -16209 0 0 -93 20 0 0 0 0 0 
M + cone.s 1.000000000000e+00 0.000000000000e+00 0.000000000000e+00 0.000000000000e+00 0.000000000000e+00 1.000000000000e+00 0.000000000000e+00 0.000000000000e+00 0.000000000000e+00 0.000000000000e+00 1.000000000000e+00 0.000000000000e+00 0.000000000000e+00 0.000000000000e+00 0.000000000000e+00 1.000000000000e+00 0 
M - cone_in.s 1.000000000000e+00 0.000000000000e+00 0.000000000000e+00 0.000000000000e+00 0.000000000000e+00 1.000000000000e+00 0.000000000000e+00 0.000000000000e+00 0.000000000000e+00 0.000000000000e+00 1.000000000000e+00 0.000000000000e+00 0.000000000000e+00 0.000000000000e+00 0.000000000000e+00 1.000000000000e+00 0 
S 19 ell_in.s 4 4.176878929138e-01 -1.361524015665e-01 8.596062064171e-01 1.049999833107e+00 0.000000000000e+00 0.000000000000e+00 0.000000000000e+00 7.424620389938e-01 -7.424620389938e-01 0.000000000000e+00 7.424620389938e-01 7.424620389938e-01 0.000000000000e+00 0.000000000000e+00 0.000000000000e+00 0.000000000000e+00 0.000000000000e+00 0.000000000000e+00 0.000000000000e+00 0.000000000000e+00 0.000000000000e+00 0.000000000000e+00 0.000000000000e+00 0.000000000000e+00 
S 19 ball_1_in.s 4 6.482486724854e-01 -9.028781652451e-01 1.635632634163e+00 4.409697949886e-01 0.000000000000e+00 0.000000000000e+00 0.000000000000e+00 2.737033963203e-01 -2.737033963203e-01 0.000000000000e+00 2.737034559250e-01 2.737034559250e-01 0.000000000000e+00 0.000000000000e+00 0.000000000000e+00 0.000000000000e+00 0.000000000000e+00 0.000000000000e+00 0.000000000000e+00 0.000000000000e+00 0.000000000000e+00 0.000000000000e+00 0.000000000000e+00 0.000000000000e+00 
C Y ball_1.r 7000 0 2 -16640 1 0 -58 101 10 64 0 0 0 
M + ball_1.s 1.000000000000e+00 0.000000000000e+00 0.000000000000e+00 0.000000000000e+00 0.000000000000e+00 1.000000000000e+00 0.000000000000e+00 0.000000000000e+00 0.000000000000e+00 0.000000000000e+00 1.000000000000e+00 0.000000000000e+00 0.000000000000e+00 0.000000000000e+00 0.000000000000e+00 1.000000000000e+00 0 
M - ball_1_in.s 1.000000000000e+00 0.000000000000e+00 0.000000000000e+00 0.000000000000e+00 0.000000000000e+00 1.000000000000e+00 0.000000000000e+00 0.000000000000e+00 0.000000000000e+00 0.000000000000e+00 1.000000000000e+00 0.000000000000e+00 0.000000000000e+00 0.000000000000e+00 0.000000000000e+00 1.000000000000e+00 0 
C Y display.r 8000 0 2 16619 2 0 -61 18 21 64 0 0 0 
M + ellipse.r 1.000000000000e+00 0.000000000000e+00 0.000000000000e+00 0.000000000000e+00 0.000000000000e+00 1.000000000000e+00 0.000000000000e+00 0.000000000000e+00 0.000000000000e+00 0.000000000000e+00 1.000000000000e+00 0.000000000000e+00 0.000000000000e+00 0.000000000000e+00 0.000000000000e+00 1.000000000000e+00 0 
M - cone.s 1.000000000000e+00 0.000000000000e+00 0.000000000000e+00 0.000000000000e+00 0.000000000000e+00 1.000000000000e+00 0.000000000000e+00 0.000000000000e+00 0.000000000000e+00 0.000000000000e+00 1.000000000000e+00 0.000000000000e+00 0.000000000000e+00 0.000000000000e+00 0.000000000000e+00 1.000000000000e+00 0 
C Y ellipse.r 4000 0 2 16619 1 0 -61 18 21 64 0 0 0 
M - ell_in.s 1.000000000000e+00 0.000000000000e+00 0.000000000000e+00 0.000000000000e+00 0.000000000000e+00 1.000000000000e+00 0.000000000000e+00 0.000000000000e+00 0.000000000000e+00 0.000000000000e+00 1.000000000000e+00 0.000000000000e+00 0.000000000000e+00 0.000000000000e+00 0.000000000000e+00 1.000000000000e+00 0 
M + ellipse.s 1.000000000000e+00 0.000000000000e+00 0.000000000000e+00 0.000000000000e+00 0.000000000000e+00 1.000000000000e+00 0.000000000000e+00 0.000000000000e+00 0.000000000000e+00 0.000000000000e+00 1.000000000000e+00 0.000000000000e+00 0.000000000000e+00 0.000000000000e+00 0.000000000000e+00 1.000000000000e+00 0 
C N all.g -1 0 4 16619 0 0 -61 18 21 64 0 0 0 
M u platform.r 1.000000000000e+00 0.000000000000e+00 0.000000000000e+00 0.000000000000e+00 0.000000000000e+00 1.000000000000e+00 0.000000000000e+00 0.000000000000e+00 0.000000000000e+00 0.000000000000e+00 1.000000000000e+00 0.000000000000e+00 0.000000000000e+00 0.000000000000e+00 0.000000000000e+00 1.000000000000e+00 0 
M u tor.r 1.000000000000e+00 0.000000000000e+00 0.000000000000e+00 0.000000000000e+00 0.000000000000e+00 1.000000000000e+00 0.000000000000e+00 0.000000000000e+00 0.000000000000e+00 0.000000000000e+00 1.000000000000e+00 0.000000000000e+00 0.000000000000e+00 0.000000000000e+00 0.000000000000e+00 1.000000000000e+00 0 
M u display.r 1.000000000000e+00 0.000000000000e+00 0.000000000000e+00 0.000000000000e+00 0.000000000000e+00 1.000000000000e+00 0.000000000000e+00 0.000000000000e+00 0.000000000000e+00 0.000000000000e+00 1.000000000000e+00 0.000000000000e+00 0.000000000000e+00 0.000000000000e+00 0.000000000000e+00 1.000000000000e+00 0 
M u cone.r 1.000000000000e+00 0.000000000000e+00 0.000000000000e+00 0.000000000000e+00 0.000000000000e+00 1.000000000000e+00 0.000000000000e+00 0.000000000000e+00 0.000000000000e+00 0.000000000000e+00 1.000000000000e+00 0.000000000000e+00 0.000000000000e+00 0.000000000000e+00 0.000000000000e+00 1.000000000000e+00 0 
