	cc -c -g -64 -mips3 -KPIC  -I. -I./../generic  -I./../bitmaps -I/systems/jra/tcl8.0/generic  -DHAVE_UNISTD_H=1 -DHAVE_LIMITS_H=1 -DSTDC_HEADERS=1 -DHAVE_SYS_TIME_H=1 -DTIME_WITH_SYS_TIME=1 -D__CHAR_UNSIGNED__=1       ./tkAppInit.c
"./tkAppInit.c", line 24: warning(1048): cast between pointer-to-object and
          pointer-to-function
  int *tclDummyMathPtr = (int *) matherr;
                         ^

	cc -c -g -64 -mips3 -KPIC  -I. -I./../generic  -I./../bitmaps -I/systems/jra/tcl8.0/generic  -DHAVE_UNISTD_H=1 -DHAVE_LIMITS_H=1 -DSTDC_HEADERS=1 -DHAVE_SYS_TIME_H=1 -DTIME_WITH_SYS_TIME=1 -D__CHAR_UNSIGNED__=1       ./../generic/tk3d.c
	cc -c -g -64 -mips3 -KPIC  -I. -I./../generic  -I./../bitmaps -I/systems/jra/tcl8.0/generic  -DHAVE_UNISTD_H=1 -DHAVE_LIMITS_H=1 -DSTDC_HEADERS=1 -DHAVE_SYS_TIME_H=1 -DTIME_WITH_SYS_TIME=1 -D__CHAR_UNSIGNED__=1       ./../generic/tkArgv.c
"./../generic/tkArgv.c", line 181: warning(1412): destination type of cast is
          too small to hold all pointers: truncation possible
  		*((int *) infoPtr->dst) = (int) infoPtr->src;
  		                          ^

"./../generic/tkArgv.c", line 245: warning(1048): cast between
          pointer-to-object and pointer-to-function
  		handlerProc = (ArgvFunc *) infoPtr->src;
  		              ^

"./../generic/tkArgv.c", line 258: warning(1048): cast between
          pointer-to-object and pointer-to-function
  		handlerProc = (ArgvGenFunc *) infoPtr->src;
  		              ^

	cc -c -g -64 -mips3 -KPIC  -I. -I./../generic  -I./../bitmaps -I/systems/jra/tcl8.0/generic  -DHAVE_UNISTD_H=1 -DHAVE_LIMITS_H=1 -DSTDC_HEADERS=1 -DHAVE_SYS_TIME_H=1 -DTIME_WITH_SYS_TIME=1 -D__CHAR_UNSIGNED__=1       ./../generic/tkAtom.c
	cc -c -g -64 -mips3 -KPIC  -I. -I./../generic  -I./../bitmaps -I/systems/jra/tcl8.0/generic  -DHAVE_UNISTD_H=1 -DHAVE_LIMITS_H=1 -DSTDC_HEADERS=1 -DHAVE_SYS_TIME_H=1 -DTIME_WITH_SYS_TIME=1 -D__CHAR_UNSIGNED__=1       ./../generic/tkBind.c
	cc -c -g -64 -mips3 -KPIC  -I. -I./../generic  -I./../bitmaps -I/systems/jra/tcl8.0/generic  -DHAVE_UNISTD_H=1 -DHAVE_LIMITS_H=1 -DSTDC_HEADERS=1 -DHAVE_SYS_TIME_H=1 -DTIME_WITH_SYS_TIME=1 -D__CHAR_UNSIGNED__=1       ./../generic/tkBitmap.c
	cc -c -g -64 -mips3 -KPIC  -I. -I./../generic  -I./../bitmaps -I/systems/jra/tcl8.0/generic  -DHAVE_UNISTD_H=1 -DHAVE_LIMITS_H=1 -DSTDC_HEADERS=1 -DHAVE_SYS_TIME_H=1 -DTIME_WITH_SYS_TIME=1 -D__CHAR_UNSIGNED__=1       ./../generic/tkClipboard.c
	cc -c -g -64 -mips3 -KPIC  -I. -I./../generic  -I./../bitmaps -I/systems/jra/tcl8.0/generic  -DHAVE_UNISTD_H=1 -DHAVE_LIMITS_H=1 -DSTDC_HEADERS=1 -DHAVE_SYS_TIME_H=1 -DTIME_WITH_SYS_TIME=1 -D__CHAR_UNSIGNED__=1       ./../generic/tkCmds.c
	cc -c -g -64 -mips3 -KPIC  -I. -I./../generic  -I./../bitmaps -I/systems/jra/tcl8.0/generic  -DHAVE_UNISTD_H=1 -DHAVE_LIMITS_H=1 -DSTDC_HEADERS=1 -DHAVE_SYS_TIME_H=1 -DTIME_WITH_SYS_TIME=1 -D__CHAR_UNSIGNED__=1       ./../generic/tkColor.c
	cc -c -g -64 -mips3 -KPIC  -I. -I./../generic  -I./../bitmaps -I/systems/jra/tcl8.0/generic  -DHAVE_UNISTD_H=1 -DHAVE_LIMITS_H=1 -DSTDC_HEADERS=1 -DHAVE_SYS_TIME_H=1 -DTIME_WITH_SYS_TIME=1 -D__CHAR_UNSIGNED__=1       ./../generic/tkConfig.c
	cc -c -g -64 -mips3 -KPIC  -I. -I./../generic  -I./../bitmaps -I/systems/jra/tcl8.0/generic  -DHAVE_UNISTD_H=1 -DHAVE_LIMITS_H=1 -DSTDC_HEADERS=1 -DHAVE_SYS_TIME_H=1 -DTIME_WITH_SYS_TIME=1 -D__CHAR_UNSIGNED__=1       ./../generic/tkCursor.c
"./../generic/tkCursor.c", line 291: warning(1412): destination type of cast
          is too small to hold all pointers: truncation possible
  	sprintf(string, "cursor id 0x%x", (unsigned int) cursor);
  	                                  ^

	cc -c -g -64 -mips3 -KPIC  -I. -I./../generic  -I./../bitmaps -I/systems/jra/tcl8.0/generic  -DHAVE_UNISTD_H=1 -DHAVE_LIMITS_H=1 -DSTDC_HEADERS=1 -DHAVE_SYS_TIME_H=1 -DTIME_WITH_SYS_TIME=1 -D__CHAR_UNSIGNED__=1       ./../generic/tkError.c
	cc -c -g -64 -mips3 -KPIC  -I. -I./../generic  -I./../bitmaps -I/systems/jra/tcl8.0/generic  -DHAVE_UNISTD_H=1 -DHAVE_LIMITS_H=1 -DSTDC_HEADERS=1 -DHAVE_SYS_TIME_H=1 -DTIME_WITH_SYS_TIME=1 -D__CHAR_UNSIGNED__=1       ./../generic/tkEvent.c
	cc -c -g -64 -mips3 -KPIC  -I. -I./../generic  -I./../bitmaps -I/systems/jra/tcl8.0/generic  -DHAVE_UNISTD_H=1 -DHAVE_LIMITS_H=1 -DSTDC_HEADERS=1 -DHAVE_SYS_TIME_H=1 -DTIME_WITH_SYS_TIME=1 -D__CHAR_UNSIGNED__=1       ./../generic/tkFocus.c
	cc -c -g -64 -mips3 -KPIC  -I. -I./../generic  -I./../bitmaps -I/systems/jra/tcl8.0/generic  -DHAVE_UNISTD_H=1 -DHAVE_LIMITS_H=1 -DSTDC_HEADERS=1 -DHAVE_SYS_TIME_H=1 -DTIME_WITH_SYS_TIME=1 -D__CHAR_UNSIGNED__=1       ./../generic/tkFont.c
	cc -c -g -64 -mips3 -KPIC  -I. -I./../generic  -I./../bitmaps -I/systems/jra/tcl8.0/generic  -DHAVE_UNISTD_H=1 -DHAVE_LIMITS_H=1 -DSTDC_HEADERS=1 -DHAVE_SYS_TIME_H=1 -DTIME_WITH_SYS_TIME=1 -D__CHAR_UNSIGNED__=1       ./../generic/tkGet.c
	cc -c -g -64 -mips3 -KPIC  -I. -I./../generic  -I./../bitmaps -I/systems/jra/tcl8.0/generic  -DHAVE_UNISTD_H=1 -DHAVE_LIMITS_H=1 -DSTDC_HEADERS=1 -DHAVE_SYS_TIME_H=1 -DTIME_WITH_SYS_TIME=1 -D__CHAR_UNSIGNED__=1       ./../generic/tkGC.c
	cc -c -g -64 -mips3 -KPIC  -I. -I./../generic  -I./../bitmaps -I/systems/jra/tcl8.0/generic  -DHAVE_UNISTD_H=1 -DHAVE_LIMITS_H=1 -DSTDC_HEADERS=1 -DHAVE_SYS_TIME_H=1 -DTIME_WITH_SYS_TIME=1 -D__CHAR_UNSIGNED__=1       ./../generic/tkGeometry.c
	cc -c -g -64 -mips3 -KPIC  -I. -I./../generic  -I./../bitmaps -I/systems/jra/tcl8.0/generic  -DHAVE_UNISTD_H=1 -DHAVE_LIMITS_H=1 -DSTDC_HEADERS=1 -DHAVE_SYS_TIME_H=1 -DTIME_WITH_SYS_TIME=1 -D__CHAR_UNSIGNED__=1       ./../generic/tkGrab.c
	cc -c -g -64 -mips3 -KPIC  -I. -I./../generic  -I./../bitmaps -I/systems/jra/tcl8.0/generic  -DHAVE_UNISTD_H=1 -DHAVE_LIMITS_H=1 -DSTDC_HEADERS=1 -DHAVE_SYS_TIME_H=1 -DTIME_WITH_SYS_TIME=1 -D__CHAR_UNSIGNED__=1       ./../generic/tkGrid.c
	cc -c -g -64 -mips3 -KPIC  -I. -I./../generic  -I./../bitmaps -I/systems/jra/tcl8.0/generic  -DHAVE_UNISTD_H=1 -DHAVE_LIMITS_H=1 -DSTDC_HEADERS=1 -DHAVE_SYS_TIME_H=1 -DTIME_WITH_SYS_TIME=1 -D__CHAR_UNSIGNED__=1       ./../generic/tkMain.c
	cc -c -g -64 -mips3 -KPIC  -I. -I./../generic  -I./../bitmaps -I/systems/jra/tcl8.0/generic  -DHAVE_UNISTD_H=1 -DHAVE_LIMITS_H=1 -DSTDC_HEADERS=1 -DHAVE_SYS_TIME_H=1 -DTIME_WITH_SYS_TIME=1 -D__CHAR_UNSIGNED__=1       ./../generic/tkOption.c
	cc -c -g -64 -mips3 -KPIC  -I. -I./../generic  -I./../bitmaps -I/systems/jra/tcl8.0/generic  -DHAVE_UNISTD_H=1 -DHAVE_LIMITS_H=1 -DSTDC_HEADERS=1 -DHAVE_SYS_TIME_H=1 -DTIME_WITH_SYS_TIME=1 -D__CHAR_UNSIGNED__=1       ./../generic/tkPack.c
	cc -c -g -64 -mips3 -KPIC  -I. -I./../generic  -I./../bitmaps -I/systems/jra/tcl8.0/generic  -DHAVE_UNISTD_H=1 -DHAVE_LIMITS_H=1 -DSTDC_HEADERS=1 -DHAVE_SYS_TIME_H=1 -DTIME_WITH_SYS_TIME=1 -D__CHAR_UNSIGNED__=1       ./../generic/tkPlace.c
	cc -c -g -64 -mips3 -KPIC  -I. -I./../generic  -I./../bitmaps -I/systems/jra/tcl8.0/generic  -DHAVE_UNISTD_H=1 -DHAVE_LIMITS_H=1 -DSTDC_HEADERS=1 -DHAVE_SYS_TIME_H=1 -DTIME_WITH_SYS_TIME=1 -D__CHAR_UNSIGNED__=1       ./../generic/tkSelect.c
	cc -c -g -64 -mips3 -KPIC  -I. -I./../generic  -I./../bitmaps -I/systems/jra/tcl8.0/generic  -DHAVE_UNISTD_H=1 -DHAVE_LIMITS_H=1 -DSTDC_HEADERS=1 -DHAVE_SYS_TIME_H=1 -DTIME_WITH_SYS_TIME=1 -D__CHAR_UNSIGNED__=1       ./../generic/tkUtil.c
	cc -c -g -64 -mips3 -KPIC  -I. -I./../generic  -I./../bitmaps -I/systems/jra/tcl8.0/generic  -DHAVE_UNISTD_H=1 -DHAVE_LIMITS_H=1 -DSTDC_HEADERS=1 -DHAVE_SYS_TIME_H=1 -DTIME_WITH_SYS_TIME=1 -D__CHAR_UNSIGNED__=1       ./../generic/tkVisual.c
	cc -c -g -64 -mips3 -KPIC  -I. -I./../generic  -I./../bitmaps -I/systems/jra/tcl8.0/generic  -DHAVE_UNISTD_H=1 -DHAVE_LIMITS_H=1 -DSTDC_HEADERS=1 -DHAVE_SYS_TIME_H=1 -DTIME_WITH_SYS_TIME=1 -D__CHAR_UNSIGNED__=1       ./../generic/tkWindow.c
	cc -c -g -64 -mips3 -KPIC  -I. -I./../generic  -I./../bitmaps -I/systems/jra/tcl8.0/generic  -DHAVE_UNISTD_H=1 -DHAVE_LIMITS_H=1 -DSTDC_HEADERS=1 -DHAVE_SYS_TIME_H=1 -DTIME_WITH_SYS_TIME=1 -D__CHAR_UNSIGNED__=1       ./tkUnix.c
	cc -c -g -64 -mips3 -KPIC  -I. -I./../generic  -I./../bitmaps -I/systems/jra/tcl8.0/generic  -DHAVE_UNISTD_H=1 -DHAVE_LIMITS_H=1 -DSTDC_HEADERS=1 -DHAVE_SYS_TIME_H=1 -DTIME_WITH_SYS_TIME=1 -D__CHAR_UNSIGNED__=1       ./tkUnix3d.c
	cc -c -g -64 -mips3 -KPIC  -I. -I./../generic  -I./../bitmaps -I/systems/jra/tcl8.0/generic  -DHAVE_UNISTD_H=1 -DHAVE_LIMITS_H=1 -DSTDC_HEADERS=1 -DHAVE_SYS_TIME_H=1 -DTIME_WITH_SYS_TIME=1 -D__CHAR_UNSIGNED__=1       ./tkUnixButton.c
	cc -c -g -64 -mips3 -KPIC  -I. -I./../generic  -I./../bitmaps -I/systems/jra/tcl8.0/generic  -DHAVE_UNISTD_H=1 -DHAVE_LIMITS_H=1 -DSTDC_HEADERS=1 -DHAVE_SYS_TIME_H=1 -DTIME_WITH_SYS_TIME=1 -D__CHAR_UNSIGNED__=1       ./tkUnixColor.c
	cc -c -g -64 -mips3 -KPIC  -I. -I./../generic  -I./../bitmaps -I/systems/jra/tcl8.0/generic  -DHAVE_UNISTD_H=1 -DHAVE_LIMITS_H=1 -DSTDC_HEADERS=1 -DHAVE_SYS_TIME_H=1 -DTIME_WITH_SYS_TIME=1 -D__CHAR_UNSIGNED__=1       ./tkUnixCursor.c
	cc -c -g -64 -mips3 -KPIC  -I. -I./../generic  -I./../bitmaps -I/systems/jra/tcl8.0/generic  -DHAVE_UNISTD_H=1 -DHAVE_LIMITS_H=1 -DSTDC_HEADERS=1 -DHAVE_SYS_TIME_H=1 -DTIME_WITH_SYS_TIME=1 -D__CHAR_UNSIGNED__=1       ./tkUnixDialog.c
	cc -c -g -64 -mips3 -KPIC  -I. -I./../generic  -I./../bitmaps -I/systems/jra/tcl8.0/generic  -DHAVE_UNISTD_H=1 -DHAVE_LIMITS_H=1 -DSTDC_HEADERS=1 -DHAVE_SYS_TIME_H=1 -DTIME_WITH_SYS_TIME=1 -D__CHAR_UNSIGNED__=1       ./tkUnixDraw.c
	cc -c -g -64 -mips3 -KPIC  -I. -I./../generic  -I./../bitmaps -I/systems/jra/tcl8.0/generic  -DHAVE_UNISTD_H=1 -DHAVE_LIMITS_H=1 -DSTDC_HEADERS=1 -DHAVE_SYS_TIME_H=1 -DTIME_WITH_SYS_TIME=1 -D__CHAR_UNSIGNED__=1       ./tkUnixEmbed.c
	cc -c -g -64 -mips3 -KPIC  -I. -I./../generic  -I./../bitmaps -I/systems/jra/tcl8.0/generic  -DHAVE_UNISTD_H=1 -DHAVE_LIMITS_H=1 -DSTDC_HEADERS=1 -DHAVE_SYS_TIME_H=1 -DTIME_WITH_SYS_TIME=1 -D__CHAR_UNSIGNED__=1       ./tkUnixEvent.c
	cc -c -g -64 -mips3 -KPIC  -I. -I./../generic  -I./../bitmaps -I/systems/jra/tcl8.0/generic  -DHAVE_UNISTD_H=1 -DHAVE_LIMITS_H=1 -DSTDC_HEADERS=1 -DHAVE_SYS_TIME_H=1 -DTIME_WITH_SYS_TIME=1 -D__CHAR_UNSIGNED__=1       ./tkUnixFocus.c
	cc -c -g -64 -mips3 -KPIC  -I. -I./../generic  -I./../bitmaps -I/systems/jra/tcl8.0/generic  -DHAVE_UNISTD_H=1 -DHAVE_LIMITS_H=1 -DSTDC_HEADERS=1 -DHAVE_SYS_TIME_H=1 -DTIME_WITH_SYS_TIME=1 -D__CHAR_UNSIGNED__=1       ./tkUnixFont.c
	cc -c -g -64 -mips3 -KPIC  -I. -I./../generic  -I./../bitmaps -I/systems/jra/tcl8.0/generic  -DHAVE_UNISTD_H=1 -DHAVE_LIMITS_H=1 -DSTDC_HEADERS=1 -DHAVE_SYS_TIME_H=1 -DTIME_WITH_SYS_TIME=1 -D__CHAR_UNSIGNED__=1       -DTK_LIBRARY=\"/usr/local/lib/tk8.0\" \
	    ./tkUnixInit.c
	cc -c -g -64 -mips3 -KPIC  -I. -I./../generic  -I./../bitmaps -I/systems/jra/tcl8.0/generic  -DHAVE_UNISTD_H=1 -DHAVE_LIMITS_H=1 -DSTDC_HEADERS=1 -DHAVE_SYS_TIME_H=1 -DTIME_WITH_SYS_TIME=1 -D__CHAR_UNSIGNED__=1       ./tkUnixMenu.c
"./tkUnixMenu.c", line 547: warning(1412): destination type of cast is too
          small to hold all pointers: truncation possible
  	dim = (int) mePtr->platformEntryData;
  	      ^

"./tkUnixMenu.c", line 575: warning(1412): destination type of cast is too
          small to hold all pointers: truncation possible
  	radius = ((int) mePtr->platformEntryData)/2;
  	          ^

"./tkUnixMenu.c", line 577: warning(1412): destination type of cast is too
          small to hold all pointers: truncation possible
  		- (int) mePtr->platformEntryData)/2;
  		  ^

	cc -c -g -64 -mips3 -KPIC  -I. -I./../generic  -I./../bitmaps -I/systems/jra/tcl8.0/generic  -DHAVE_UNISTD_H=1 -DHAVE_LIMITS_H=1 -DSTDC_HEADERS=1 -DHAVE_SYS_TIME_H=1 -DTIME_WITH_SYS_TIME=1 -D__CHAR_UNSIGNED__=1       ./tkUnixMenubu.c
	cc -c -g -64 -mips3 -KPIC  -I. -I./../generic  -I./../bitmaps -I/systems/jra/tcl8.0/generic  -DHAVE_UNISTD_H=1 -DHAVE_LIMITS_H=1 -DSTDC_HEADERS=1 -DHAVE_SYS_TIME_H=1 -DTIME_WITH_SYS_TIME=1 -D__CHAR_UNSIGNED__=1       ./tkUnixScale.c
	cc -c -g -64 -mips3 -KPIC  -I. -I./../generic  -I./../bitmaps -I/systems/jra/tcl8.0/generic  -DHAVE_UNISTD_H=1 -DHAVE_LIMITS_H=1 -DSTDC_HEADERS=1 -DHAVE_SYS_TIME_H=1 -DTIME_WITH_SYS_TIME=1 -D__CHAR_UNSIGNED__=1       ./tkUnixScrlbr.c
	cc -c -g -64 -mips3 -KPIC  -I. -I./../generic  -I./../bitmaps -I/systems/jra/tcl8.0/generic  -DHAVE_UNISTD_H=1 -DHAVE_LIMITS_H=1 -DSTDC_HEADERS=1 -DHAVE_SYS_TIME_H=1 -DTIME_WITH_SYS_TIME=1 -D__CHAR_UNSIGNED__=1       ./tkUnixSelect.c
	cc -c -g -64 -mips3 -KPIC  -I. -I./../generic  -I./../bitmaps -I/systems/jra/tcl8.0/generic  -DHAVE_UNISTD_H=1 -DHAVE_LIMITS_H=1 -DSTDC_HEADERS=1 -DHAVE_SYS_TIME_H=1 -DTIME_WITH_SYS_TIME=1 -D__CHAR_UNSIGNED__=1       ./tkUnixSend.c
	cc -c -g -64 -mips3 -KPIC  -I. -I./../generic  -I./../bitmaps -I/systems/jra/tcl8.0/generic  -DHAVE_UNISTD_H=1 -DHAVE_LIMITS_H=1 -DSTDC_HEADERS=1 -DHAVE_SYS_TIME_H=1 -DTIME_WITH_SYS_TIME=1 -D__CHAR_UNSIGNED__=1       ./tkUnixWm.c
	cc -c -g -64 -mips3 -KPIC  -I. -I./../generic  -I./../bitmaps -I/systems/jra/tcl8.0/generic  -DHAVE_UNISTD_H=1 -DHAVE_LIMITS_H=1 -DSTDC_HEADERS=1 -DHAVE_SYS_TIME_H=1 -DTIME_WITH_SYS_TIME=1 -D__CHAR_UNSIGNED__=1       ./tkUnixXId.c
	cc -c -g -64 -mips3 -KPIC  -I. -I./../generic  -I./../bitmaps -I/systems/jra/tcl8.0/generic  -DHAVE_UNISTD_H=1 -DHAVE_LIMITS_H=1 -DSTDC_HEADERS=1 -DHAVE_SYS_TIME_H=1 -DTIME_WITH_SYS_TIME=1 -D__CHAR_UNSIGNED__=1       ./../generic/tkButton.c
	cc -c -g -64 -mips3 -KPIC  -I. -I./../generic  -I./../bitmaps -I/systems/jra/tcl8.0/generic  -DHAVE_UNISTD_H=1 -DHAVE_LIMITS_H=1 -DSTDC_HEADERS=1 -DHAVE_SYS_TIME_H=1 -DTIME_WITH_SYS_TIME=1 -D__CHAR_UNSIGNED__=1       ./../generic/tkEntry.c
	cc -c -g -64 -mips3 -KPIC  -I. -I./../generic  -I./../bitmaps -I/systems/jra/tcl8.0/generic  -DHAVE_UNISTD_H=1 -DHAVE_LIMITS_H=1 -DSTDC_HEADERS=1 -DHAVE_SYS_TIME_H=1 -DTIME_WITH_SYS_TIME=1 -D__CHAR_UNSIGNED__=1       ./../generic/tkFrame.c
	cc -c -g -64 -mips3 -KPIC  -I. -I./../generic  -I./../bitmaps -I/systems/jra/tcl8.0/generic  -DHAVE_UNISTD_H=1 -DHAVE_LIMITS_H=1 -DSTDC_HEADERS=1 -DHAVE_SYS_TIME_H=1 -DTIME_WITH_SYS_TIME=1 -D__CHAR_UNSIGNED__=1       ./../generic/tkListbox.c
	cc -c -g -64 -mips3 -KPIC  -I. -I./../generic  -I./../bitmaps -I/systems/jra/tcl8.0/generic  -DHAVE_UNISTD_H=1 -DHAVE_LIMITS_H=1 -DSTDC_HEADERS=1 -DHAVE_SYS_TIME_H=1 -DTIME_WITH_SYS_TIME=1 -D__CHAR_UNSIGNED__=1       ./../generic/tkMenu.c
	cc -c -g -64 -mips3 -KPIC  -I. -I./../generic  -I./../bitmaps -I/systems/jra/tcl8.0/generic  -DHAVE_UNISTD_H=1 -DHAVE_LIMITS_H=1 -DSTDC_HEADERS=1 -DHAVE_SYS_TIME_H=1 -DTIME_WITH_SYS_TIME=1 -D__CHAR_UNSIGNED__=1       ./../generic/tkMenubutton.c
	cc -c -g -64 -mips3 -KPIC  -I. -I./../generic  -I./../bitmaps -I/systems/jra/tcl8.0/generic  -DHAVE_UNISTD_H=1 -DHAVE_LIMITS_H=1 -DSTDC_HEADERS=1 -DHAVE_SYS_TIME_H=1 -DTIME_WITH_SYS_TIME=1 -D__CHAR_UNSIGNED__=1       ./../generic/tkMenuDraw.c
	cc -c -g -64 -mips3 -KPIC  -I. -I./../generic  -I./../bitmaps -I/systems/jra/tcl8.0/generic  -DHAVE_UNISTD_H=1 -DHAVE_LIMITS_H=1 -DSTDC_HEADERS=1 -DHAVE_SYS_TIME_H=1 -DTIME_WITH_SYS_TIME=1 -D__CHAR_UNSIGNED__=1       ./../generic/tkMessage.c
	cc -c -g -64 -mips3 -KPIC  -I. -I./../generic  -I./../bitmaps -I/systems/jra/tcl8.0/generic  -DHAVE_UNISTD_H=1 -DHAVE_LIMITS_H=1 -DSTDC_HEADERS=1 -DHAVE_SYS_TIME_H=1 -DTIME_WITH_SYS_TIME=1 -D__CHAR_UNSIGNED__=1       ./../generic/tkScale.c
	cc -c -g -64 -mips3 -KPIC  -I. -I./../generic  -I./../bitmaps -I/systems/jra/tcl8.0/generic  -DHAVE_UNISTD_H=1 -DHAVE_LIMITS_H=1 -DSTDC_HEADERS=1 -DHAVE_SYS_TIME_H=1 -DTIME_WITH_SYS_TIME=1 -D__CHAR_UNSIGNED__=1       ./../generic/tkScrollbar.c
	cc -c -g -64 -mips3 -KPIC  -I. -I./../generic  -I./../bitmaps -I/systems/jra/tcl8.0/generic  -DHAVE_UNISTD_H=1 -DHAVE_LIMITS_H=1 -DSTDC_HEADERS=1 -DHAVE_SYS_TIME_H=1 -DTIME_WITH_SYS_TIME=1 -D__CHAR_UNSIGNED__=1       ./../generic/tkCanvas.c
	cc -c -g -64 -mips3 -KPIC  -I. -I./../generic  -I./../bitmaps -I/systems/jra/tcl8.0/generic  -DHAVE_UNISTD_H=1 -DHAVE_LIMITS_H=1 -DSTDC_HEADERS=1 -DHAVE_SYS_TIME_H=1 -DTIME_WITH_SYS_TIME=1 -D__CHAR_UNSIGNED__=1       ./../generic/tkCanvArc.c
	cc -c -g -64 -mips3 -KPIC  -I. -I./../generic  -I./../bitmaps -I/systems/jra/tcl8.0/generic  -DHAVE_UNISTD_H=1 -DHAVE_LIMITS_H=1 -DSTDC_HEADERS=1 -DHAVE_SYS_TIME_H=1 -DTIME_WITH_SYS_TIME=1 -D__CHAR_UNSIGNED__=1       ./../generic/tkCanvBmap.c
	cc -c -g -64 -mips3 -KPIC  -I. -I./../generic  -I./../bitmaps -I/systems/jra/tcl8.0/generic  -DHAVE_UNISTD_H=1 -DHAVE_LIMITS_H=1 -DSTDC_HEADERS=1 -DHAVE_SYS_TIME_H=1 -DTIME_WITH_SYS_TIME=1 -D__CHAR_UNSIGNED__=1       ./../generic/tkCanvImg.c
	cc -c -g -64 -mips3 -KPIC  -I. -I./../generic  -I./../bitmaps -I/systems/jra/tcl8.0/generic  -DHAVE_UNISTD_H=1 -DHAVE_LIMITS_H=1 -DSTDC_HEADERS=1 -DHAVE_SYS_TIME_H=1 -DTIME_WITH_SYS_TIME=1 -D__CHAR_UNSIGNED__=1       ./../generic/tkCanvLine.c
	cc -c -g -64 -mips3 -KPIC  -I. -I./../generic  -I./../bitmaps -I/systems/jra/tcl8.0/generic  -DHAVE_UNISTD_H=1 -DHAVE_LIMITS_H=1 -DSTDC_HEADERS=1 -DHAVE_SYS_TIME_H=1 -DTIME_WITH_SYS_TIME=1 -D__CHAR_UNSIGNED__=1       ./../generic/tkCanvPoly.c
	cc -c -g -64 -mips3 -KPIC  -I. -I./../generic  -I./../bitmaps -I/systems/jra/tcl8.0/generic  -DHAVE_UNISTD_H=1 -DHAVE_LIMITS_H=1 -DSTDC_HEADERS=1 -DHAVE_SYS_TIME_H=1 -DTIME_WITH_SYS_TIME=1 -D__CHAR_UNSIGNED__=1       ./../generic/tkCanvPs.c
	cc -c -g -64 -mips3 -KPIC  -I. -I./../generic  -I./../bitmaps -I/systems/jra/tcl8.0/generic  -DHAVE_UNISTD_H=1 -DHAVE_LIMITS_H=1 -DSTDC_HEADERS=1 -DHAVE_SYS_TIME_H=1 -DTIME_WITH_SYS_TIME=1 -D__CHAR_UNSIGNED__=1       ./../generic/tkCanvText.c
	cc -c -g -64 -mips3 -KPIC  -I. -I./../generic  -I./../bitmaps -I/systems/jra/tcl8.0/generic  -DHAVE_UNISTD_H=1 -DHAVE_LIMITS_H=1 -DSTDC_HEADERS=1 -DHAVE_SYS_TIME_H=1 -DTIME_WITH_SYS_TIME=1 -D__CHAR_UNSIGNED__=1       ./../generic/tkCanvUtil.c
	cc -c -g -64 -mips3 -KPIC  -I. -I./../generic  -I./../bitmaps -I/systems/jra/tcl8.0/generic  -DHAVE_UNISTD_H=1 -DHAVE_LIMITS_H=1 -DSTDC_HEADERS=1 -DHAVE_SYS_TIME_H=1 -DTIME_WITH_SYS_TIME=1 -D__CHAR_UNSIGNED__=1       ./../generic/tkCanvWind.c
	cc -c -g -64 -mips3 -KPIC  -I. -I./../generic  -I./../bitmaps -I/systems/jra/tcl8.0/generic  -DHAVE_UNISTD_H=1 -DHAVE_LIMITS_H=1 -DSTDC_HEADERS=1 -DHAVE_SYS_TIME_H=1 -DTIME_WITH_SYS_TIME=1 -D__CHAR_UNSIGNED__=1       ./../generic/tkRectOval.c
	cc -c -g -64 -mips3 -KPIC  -I. -I./../generic  -I./../bitmaps -I/systems/jra/tcl8.0/generic  -DHAVE_UNISTD_H=1 -DHAVE_LIMITS_H=1 -DSTDC_HEADERS=1 -DHAVE_SYS_TIME_H=1 -DTIME_WITH_SYS_TIME=1 -D__CHAR_UNSIGNED__=1       ./../generic/tkTrig.c
	cc -c -g -64 -mips3 -KPIC  -I. -I./../generic  -I./../bitmaps -I/systems/jra/tcl8.0/generic  -DHAVE_UNISTD_H=1 -DHAVE_LIMITS_H=1 -DSTDC_HEADERS=1 -DHAVE_SYS_TIME_H=1 -DTIME_WITH_SYS_TIME=1 -D__CHAR_UNSIGNED__=1       ./../generic/tkImage.c
	cc -c -g -64 -mips3 -KPIC  -I. -I./../generic  -I./../bitmaps -I/systems/jra/tcl8.0/generic  -DHAVE_UNISTD_H=1 -DHAVE_LIMITS_H=1 -DSTDC_HEADERS=1 -DHAVE_SYS_TIME_H=1 -DTIME_WITH_SYS_TIME=1 -D__CHAR_UNSIGNED__=1       ./../generic/tkImgBmap.c
	cc -c -g -64 -mips3 -KPIC  -I. -I./../generic  -I./../bitmaps -I/systems/jra/tcl8.0/generic  -DHAVE_UNISTD_H=1 -DHAVE_LIMITS_H=1 -DSTDC_HEADERS=1 -DHAVE_SYS_TIME_H=1 -DTIME_WITH_SYS_TIME=1 -D__CHAR_UNSIGNED__=1       ./../generic/tkImgGIF.c
	cc -c -g -64 -mips3 -KPIC  -I. -I./../generic  -I./../bitmaps -I/systems/jra/tcl8.0/generic  -DHAVE_UNISTD_H=1 -DHAVE_LIMITS_H=1 -DSTDC_HEADERS=1 -DHAVE_SYS_TIME_H=1 -DTIME_WITH_SYS_TIME=1 -D__CHAR_UNSIGNED__=1       ./../generic/tkImgPPM.c
	cc -c -g -64 -mips3 -KPIC  -I. -I./../generic  -I./../bitmaps -I/systems/jra/tcl8.0/generic  -DHAVE_UNISTD_H=1 -DHAVE_LIMITS_H=1 -DSTDC_HEADERS=1 -DHAVE_SYS_TIME_H=1 -DTIME_WITH_SYS_TIME=1 -D__CHAR_UNSIGNED__=1       ./../generic/tkImgPhoto.c
	cc -c -g -64 -mips3 -KPIC  -I. -I./../generic  -I./../bitmaps -I/systems/jra/tcl8.0/generic  -DHAVE_UNISTD_H=1 -DHAVE_LIMITS_H=1 -DSTDC_HEADERS=1 -DHAVE_SYS_TIME_H=1 -DTIME_WITH_SYS_TIME=1 -D__CHAR_UNSIGNED__=1       ./../generic/tkText.c
	cc -c -g -64 -mips3 -KPIC  -I. -I./../generic  -I./../bitmaps -I/systems/jra/tcl8.0/generic  -DHAVE_UNISTD_H=1 -DHAVE_LIMITS_H=1 -DSTDC_HEADERS=1 -DHAVE_SYS_TIME_H=1 -DTIME_WITH_SYS_TIME=1 -D__CHAR_UNSIGNED__=1       ./../generic/tkTextBTree.c
	cc -c -g -64 -mips3 -KPIC  -I. -I./../generic  -I./../bitmaps -I/systems/jra/tcl8.0/generic  -DHAVE_UNISTD_H=1 -DHAVE_LIMITS_H=1 -DSTDC_HEADERS=1 -DHAVE_SYS_TIME_H=1 -DTIME_WITH_SYS_TIME=1 -D__CHAR_UNSIGNED__=1       ./../generic/tkTextDisp.c
	cc -c -g -64 -mips3 -KPIC  -I. -I./../generic  -I./../bitmaps -I/systems/jra/tcl8.0/generic  -DHAVE_UNISTD_H=1 -DHAVE_LIMITS_H=1 -DSTDC_HEADERS=1 -DHAVE_SYS_TIME_H=1 -DTIME_WITH_SYS_TIME=1 -D__CHAR_UNSIGNED__=1       ./../generic/tkTextImage.c
	cc -c -g -64 -mips3 -KPIC  -I. -I./../generic  -I./../bitmaps -I/systems/jra/tcl8.0/generic  -DHAVE_UNISTD_H=1 -DHAVE_LIMITS_H=1 -DSTDC_HEADERS=1 -DHAVE_SYS_TIME_H=1 -DTIME_WITH_SYS_TIME=1 -D__CHAR_UNSIGNED__=1       ./../generic/tkTextIndex.c
	cc -c -g -64 -mips3 -KPIC  -I. -I./../generic  -I./../bitmaps -I/systems/jra/tcl8.0/generic  -DHAVE_UNISTD_H=1 -DHAVE_LIMITS_H=1 -DSTDC_HEADERS=1 -DHAVE_SYS_TIME_H=1 -DTIME_WITH_SYS_TIME=1 -D__CHAR_UNSIGNED__=1       ./../generic/tkTextMark.c
	cc -c -g -64 -mips3 -KPIC  -I. -I./../generic  -I./../bitmaps -I/systems/jra/tcl8.0/generic  -DHAVE_UNISTD_H=1 -DHAVE_LIMITS_H=1 -DSTDC_HEADERS=1 -DHAVE_SYS_TIME_H=1 -DTIME_WITH_SYS_TIME=1 -D__CHAR_UNSIGNED__=1       ./../generic/tkTextTag.c
	cc -c -g -64 -mips3 -KPIC  -I. -I./../generic  -I./../bitmaps -I/systems/jra/tcl8.0/generic  -DHAVE_UNISTD_H=1 -DHAVE_LIMITS_H=1 -DSTDC_HEADERS=1 -DHAVE_SYS_TIME_H=1 -DTIME_WITH_SYS_TIME=1 -D__CHAR_UNSIGNED__=1       ./../generic/tkTextWind.c
	rm -f libtk8.0.a
	ar cr libtk8.0.a tk3d.o tkArgv.o tkAtom.o tkBind.o tkBitmap.o tkClipboard.o tkCmds.o  tkColor.o tkConfig.o tkCursor.o tkError.o tkEvent.o  tkFocus.o tkFont.o tkGet.o tkGC.o tkGeometry.o tkGrab.o tkGrid.o  tkMain.o tkOption.o tkPack.o tkPlace.o  tkSelect.o tkUtil.o tkVisual.o tkWindow.o  tkUnix.o tkUnix3d.o tkUnixButton.o tkUnixColor.o tkUnixCursor.o  tkUnixDialog.o tkUnixDraw.o  tkUnixEmbed.o tkUnixEvent.o tkUnixFocus.o tkUnixFont.o tkUnixInit.o  tkUnixMenu.o tkUnixMenubu.o tkUnixScale.o tkUnixScrlbr.o  tkUnixSelect.o tkUnixSend.o tkUnixWm.o tkUnixXId.o tkButton.o tkEntry.o tkFrame.o tkListbox.o  tkMenu.o tkMenubutton.o tkMenuDraw.o tkMessage.o tkScale.o  tkScrollbar.o tkCanvas.o tkCanvArc.o tkCanvBmap.o tkCanvImg.o  tkCanvLine.o tkCanvPoly.o tkCanvPs.o tkCanvText.o  tkCanvUtil.o tkCanvWind.o tkRectOval.o tkTrig.o tkImage.o tkImgBmap.o tkImgGIF.o tkImgPPM.o tkImgPhoto.o tkText.o tkTextBTree.o tkTextDisp.o tkTextImage.o tkTextIndex.o  tkTextMark.o tkTextTag.o tkTextWind.o
	ranlib libtk8.0.a
	cc  tkAppInit.o -L/systems/jra/tk8.0/unix -ltk8.0 -L/systems/jra/tcl8.0/unix -ltcl8.0  -lX11  -lm -lc \
		 -o wish
ld: FATAL 12: Expecting o32 objects: tkAppInit.o is 64-bit.
*** Error code 1 (bu21)
