This is an IGES CSG model (version 4.0)                                 S0000001
This file was created by 'brl-iges'                                     S0000002
It is a conversion from a BRLCAD model                                  S0000003
,,5Hman.g,10Hwoodsman.g,30H'brl-iges' by John R. Anderson,3H1.0,32,,,,, G0000001
5Hman.g,1.0,2,2HMM,,,13H910514.212219,1e-39,1e+73,                      G0000002
30HJohn R. Anderson (jra@brl.mil),                                      G0000003
39HU.S. Army Ballistic Research Laboratory,6,0;                         G0000004
     184       1       0       0       0       0       0       000000000D0000001
     184       0       0       1       0                   man.g       0D0000002
     180       2       0       0       0       0       0       000000000D0000003
     180       0     -37       1       0                collar.r       0D0000004
     160       4       0       0       0       0       0       000000000D0000005
     160       0       0       3       0                     t.1       0D0000006
     180       7       0       0       0       0       0       000000000D0000007
     180       0     -39       1       0                funnel.r       0D0000008
     156       9       0       0       0       0       0       000000000D0000009
     156       0       0       3       0                     c.1       0D0000010
     158      12       0       0       0       0       0       000000000D0000011
     158       0       0       2       0                     e.1       0D0000012
     154      14       0       0       0       0       0       000000000D0000013
     154       0       0       3       0                     c.2       0D0000014
     180      17       0       0       0       0       0       000000000D0000015
     180       0     -41       1       0                 limbs.r       0D0000016
     168      19       0       0       0       0       0       000000000D0000017
     168       0       0       4       0                     e.2       0D0000018
     168      23       0       0       0       0       0       000000000D0000019
     168       0       0       4       0                     e.3       0D0000020
     168      27       0       0       0       0       0       000000000D0000021
     168       0       0       4       0                     e.4       0D0000022
     168      31       0       0       0       0       0       000000000D0000023
     168       0       0       4       0                     e.5       0D0000024
     168      35       0       0       0       0       0       000000000D0000025
     168       0       0       4       0                     e.6       0D0000026
     168      39       0       0       0       0       0       000000000D0000027
     168       0       0       4       0                     e.7       0D0000028
     168      43       0       0       0       0       0       000000000D0000029
     168       0       0       4       0                     e.8       0D0000030
     168      47       0       0       0       0       0       000000000D0000031
     168       0       0       4       0                     e.9       0D0000032
     180      51       0       0       0       0       0       000000000D0000033
     180       0     -43       1       0                 torso.r       0D0000034
     150      53       0       0       0       0       0       000000000D0000035
     150       0       0       4       0                     s.1       0D0000036
     314       3       0       0       0       0       0       000000000D0000037
     314       0       0       1       0                   COLOR       0D0000038
     314       8       0       0       0       0       0       000000000D0000039
     314       0       0       1       0                   COLOR       0D0000040
     314      18       0       0       0       0       0       000000000D0000041
     314       0       0       1       0                   COLOR       0D0000042
     314      52       0       0       0       0       0       000000000D0000043
     314       0       0       1       0                   COLOR       0D0000044
184,4,3,7,15,33;                                                 0000001P0000001
180,1,-5;                                                        0000003P0000002
314,100.00, 49.80,  0.00;                                        0000035P0000003
160,1.000000000000e+00,1.000000014901e-01,0.000000000000e+00,    0000005P0000004
1.000000000000e+00,0.000000000000e+00,0.000000000000e+00,        0000005P0000005
1.000000000000e+00,0.000000000000e+00;                           0000005P0000006
180,7,-9,-11,3,-13,-11,3,1;                                      0000007P0000007
314, 13.73, 41.96, 55.69;                                        0000037P0000008
156,2.000000000000e+00,1.000000000000e+00,1.000000014901e-01,    0000009P0000009
0.000000000000e+00,2.200000047684e+00,0.000000000000e+00,        0000009P0000010
4.329757140656e-17,1.000000000000e+00,-4.329757140656e-17;       0000009P0000011
158,1.000000000000e+00,0.000000000000e+00,2.000000000000e+00,    0000011P0000012
0.000000000000e+00;                                              0000011P0000013
154,2.000000000000e+00,1.000000014901e-01,0.000000000000e+00,    0000013P0000014
4.199999809265e+00,0.000000000000e+00,4.329757140656e-17,        0000013P0000015
1.000000000000e+00,-4.329757140656e-17;                          0000013P0000016
180,17,-29,-27,-25,-23,-21,-19,-17,-11,1,1,1,1,1,1,1,-31,1;      0000015P0000017
314,100.00, 78.43, 62.75;                                        0000039P0000018
168,1.000000000000e+00,2.500000000000e-01,2.500000000000e-01,    0000017P0000019
-1.299999952316e+00,0.000000000000e+00,0.000000000000e+00,       0000017P0000020
4.329757140656e-17,1.000000000000e+00,-4.329757140656e-17,       0000017P0000021
7.071067811865e-01,0.000000000000e+00,7.071067811865e-01;        0000017P0000022
168,1.000000000000e+00,2.500000000000e-01,2.500000000000e-01,    0000019P0000023
-1.299999952316e+00,-2.000000000000e+00,0.000000000000e+00,      0000019P0000024
4.329757140656e-17,1.000000000000e+00,-4.329757140656e-17,       0000019P0000025
7.071067811865e-01,0.000000000000e+00,7.071067811865e-01;        0000019P0000026
168,1.000000000000e+00,2.500000000000e-01,2.500000000000e-01,    0000021P0000027
1.299999952316e+00,0.000000000000e+00,0.000000000000e+00,        0000021P0000028
4.329757140656e-17,1.000000000000e+00,-4.329757140656e-17,       0000021P0000029
7.071067811865e-01,0.000000000000e+00,7.071067811865e-01;        0000021P0000030
168,1.000000000000e+00,2.500000000000e-01,2.500000000000e-01,    0000023P0000031
1.299999952316e+00,-2.000000000000e+00,0.000000000000e+00,       0000023P0000032
4.329757140656e-17,1.000000000000e+00,-4.329757140656e-17,       0000023P0000033
7.071067811865e-01,0.000000000000e+00,7.071067811865e-01;        0000023P0000034
168,1.000000000000e+00,5.000000000000e-01,5.000000000000e-01,    0000025P0000035
-5.000000000000e-01,-3.000000000000e+00,0.000000000000e+00,      0000025P0000036
4.329757140656e-17,1.000000000000e+00,-4.329757140656e-17,       0000025P0000037
7.071067811865e-01,0.000000000000e+00,7.071067811865e-01;        0000025P0000038
168,1.000000000000e+00,5.000000000000e-01,5.000000000000e-01,    0000027P0000039
-5.000000000000e-01,-5.000000000000e+00,0.000000000000e+00,      0000027P0000040
4.329757140656e-17,1.000000000000e+00,-4.329757140656e-17,       0000027P0000041
7.071067811865e-01,0.000000000000e+00,7.071067811865e-01;        0000027P0000042
168,1.000000000000e+00,5.000000000000e-01,5.000000000000e-01,    0000029P0000043
5.000000000000e-01,-3.000000000000e+00,0.000000000000e+00,       0000029P0000044
4.329757140656e-17,1.000000000000e+00,-4.329757140656e-17,       0000029P0000045
7.071067811865e-01,0.000000000000e+00,7.071067811865e-01;        0000029P0000046
168,1.000000000000e+00,5.000000000000e-01,5.000000000000e-01,    0000031P0000047
5.000000000000e-01,-5.000000000000e+00,0.000000000000e+00,       0000031P0000048
4.329757140656e-17,1.000000000000e+00,-4.329757140656e-17,       0000031P0000049
7.071067811865e-01,0.000000000000e+00,7.071067811865e-01;        0000031P0000050
180,1,-35;                                                       0000033P0000051
314, 37.25, 62.35, 62.35;                                        0000041P0000052
150,2.000000000000e+00,2.000000000000e+00,3.000000000000e+00,    0000035P0000053
1.000000000000e+00,-2.000000000000e+00,-1.000000000000e+00,      0000035P0000054
-1.000000000000e+00,0.000000000000e+00,0.000000000000e+00,       0000035P0000055
0.000000000000e+00,1.000000000000e+00,0.000000000000e+00;        0000035P0000056
S0000003G0000004D0000044P0000056                                        T0000001
