I 1 v4
Cray X-MP section 
m 4 1000 1099 255 0 80
m 4 1100 1199 9 7 20
m 4 1200 1299 150 130 150
m 4 1300 1399 241 187 24
S 20 cpucte1 8 6.379941170000e+01 3.207413020000e+02 4.571999810000e+02 7.618765250000e+01 3.830211480000e+02 0.000000000000e+00 7.618765250000e+01 3.830211480000e+02 1.498599970000e+03 0.000000000000e+00 0.000000000000e+00 1.498599970000e+03 7.473583980000e+01 -1.486587520000e+01 0.000000000000e+00 1.509234920000e+02 3.681552420000e+02 0.000000000000e+00 1.509234920000e+02 3.681552420000e+02 1.498599970000e+03 7.473583980000e+01 -1.486587520000e+01 1.498599970000e+03 
S 20 cpucbe1 8 6.379941170000e+01 3.207413020000e+02 0.000000000000e+00 7.618765250000e+01 3.830211480000e+02 0.000000000000e+00 7.618765250000e+01 3.830211480000e+02 4.571999810000e+02 0.000000000000e+00 0.000000000000e+00 4.571999810000e+02 7.473583980000e+01 -1.486587520000e+01 0.000000000000e+00 1.509234770000e+02 3.681552420000e+02 0.000000000000e+00 1.509234770000e+02 3.681552420000e+02 4.571999810000e+02 7.473583980000e+01 -1.486587520000e+01 4.571999810000e+02 
S 20 secwed 6 2.973176570000e+02 1.494716790000e+03 -2.539999960000e+01 -5.946353140000e+02 0.000000000000e+00 0.000000000000e+00 -5.946353140000e+02 0.000000000000e+00 2.057399650000e+03 0.000000000000e+00 0.000000000000e+00 2.057399650000e+03 -2.973176570000e+02 -1.494716790000e+03 0.000000000000e+00 -2.973176570000e+02 -1.494716790000e+03 0.000000000000e+00 -2.973176570000e+02 -1.494716790000e+03 2.057399650000e+03 -2.973176570000e+02 -1.494716790000e+03 2.057399650000e+03 
S 16 psouttor 6 0.000000000000e+00 0.000000000000e+00 4.572000120000e+02 0.000000000000e+00 0.000000000000e+00 2.539999960000e+01 0.000000000000e+00 1.314449950000e+03 0.000000000000e+00 1.314449950000e+03 0.000000000000e+00 0.000000000000e+00 0.000000000000e+00 1.289049920000e+03 0.000000000000e+00 1.289049920000e+03 0.000000000000e+00 0.000000000000e+00 0.000000000000e+00 1.339849970000e+03 0.000000000000e+00 1.339849970000e+03 0.000000000000e+00 0.000000000000e+00 
S 20 cpubox.a.a 8 6.379941170000e+01 3.207413020000e+02 0.000000000000e+00 7.618765250000e+01 3.830211480000e+02 0.000000000000e+00 7.618765250000e+01 3.830211480000e+02 1.955800040000e+03 0.000000000000e+00 0.000000000000e+00 1.955800040000e+03 -1.275988230000e+02 0.000000000000e+00 0.000000000000e+00 -2.037864680000e+02 3.830211480000e+02 0.000000000000e+00 -2.037864680000e+02 3.830211480000e+02 1.955800040000e+03 -1.275988230000e+02 0.000000000000e+00 1.955800040000e+03 
S 20 psminbox 8 1.523999930000e+02 -1.270000000000e+02 0.000000000000e+00 0.000000000000e+00 8.307624510000e+02 0.000000000000e+00 0.000000000000e+00 8.307624510000e+02 5.080000000000e+02 0.000000000000e+00 0.000000000000e+00 5.080000000000e+02 -3.047999870000e+02 0.000000000000e+00 0.000000000000e+00 -3.047999870000e+02 8.307624510000e+02 0.000000000000e+00 -3.047999870000e+02 8.307624510000e+02 5.080000000000e+02 -3.047999870000e+02 0.000000000000e+00 5.080000000000e+02 
S 20 psfootbox 8 1.145870590000e+02 7.037624510000e+02 0.000000000000e+00 1.164494240000e+02 5.854307860000e+02 0.000000000000e+00 1.164494240000e+02 5.854307860000e+02 2.539999960000e+01 0.000000000000e+00 0.000000000000e+00 2.539999960000e+01 -2.291741180000e+02 0.000000000000e+00 0.000000000000e+00 -3.456235350000e+02 5.854307860000e+02 0.000000000000e+00 -3.456235350000e+02 5.854307860000e+02 2.539999960000e+01 -2.291741180000e+02 0.000000000000e+00 2.539999960000e+01 
C Y cpubox.b 1000 0 1 16512 1 100 0 0 0 0 
M u cpubox.b.a 1.000000000000e+00 0.000000000000e+00 0.000000000000e+00 0.000000000000e+00 0.000000000000e+00 1.000000000000e+00 0.000000000000e+00 0.000000000000e+00 0.000000000000e+00 0.000000000000e+00 1.000000000000e+00 0.000000000000e+00 0.000000000000e+00 0.000000000000e+00 0.000000000000e+00 1.000000000000e+00 0 
S 20 cpucte2 8 3.207413020000e+02 -6.379940410000e+01 4.571999810000e+02 3.830211480000e+02 -7.618765250000e+01 0.000000000000e+00 3.830211480000e+02 -7.618765250000e+01 1.498599970000e+03 0.000000000000e+00 0.000000000000e+00 1.498599970000e+03 1.486587520000e+01 7.473583220000e+01 0.000000000000e+00 3.978870540000e+02 -1.451824180000e+00 0.000000000000e+00 3.978870540000e+02 -1.451824180000e+00 1.498599970000e+03 1.486587520000e+01 7.473583220000e+01 1.498599970000e+03 
S 20 cpucbe2 8 3.207413020000e+02 -6.379940410000e+01 0.000000000000e+00 3.830211480000e+02 -7.618765250000e+01 0.000000000000e+00 3.830211480000e+02 -7.618765250000e+01 4.571999810000e+02 0.000000000000e+00 0.000000000000e+00 4.571999810000e+02 1.486587520000e+01 7.473583220000e+01 0.000000000000e+00 3.978870540000e+02 -1.451816550000e+00 0.000000000000e+00 3.978870540000e+02 -1.451816550000e+00 4.571999810000e+02 1.486587520000e+01 7.473583220000e+01 4.571999810000e+02 
S 20 cpubox.b.a 8 1.270000000000e+02 6.921500240000e+02 4.952999870000e+02 0.000000000000e+00 1.295397940000e+01 0.000000000000e+00 0.000000000000e+00 1.295397940000e+01 1.447800290000e+03 0.000000000000e+00 0.000000000000e+00 1.447800290000e+03 -2.540000000000e+02 0.000000000000e+00 0.000000000000e+00 -2.540000000000e+02 1.295397940000e+01 0.000000000000e+00 -2.540000000000e+02 1.295397940000e+01 1.447800290000e+03 -2.540000000000e+02 0.000000000000e+00 1.447800290000e+03 
S 20 psmaxbox 8 3.810000000000e+02 -1.270000000000e+02 2.539999960000e+01 0.000000000000e+00 1.441105100000e+03 0.000000000000e+00 0.000000000000e+00 1.441105100000e+03 4.572000120000e+02 0.000000000000e+00 0.000000000000e+00 4.572000120000e+02 -7.620000000000e+02 0.000000000000e+00 0.000000000000e+00 -7.620000000000e+02 1.441105100000e+03 0.000000000000e+00 -7.620000000000e+02 1.441105100000e+03 4.572000120000e+02 -7.620000000000e+02 0.000000000000e+00 4.572000120000e+02 
C N cpubox -1 0 2 0 0 0 0 0 0 0 
M u cpubox.a 1.000000000000e+00 0.000000000000e+00 0.000000000000e+00 0.000000000000e+00 0.000000000000e+00 1.000000000000e+00 0.000000000000e+00 0.000000000000e+00 0.000000000000e+00 0.000000000000e+00 1.000000000000e+00 0.000000000000e+00 0.000000000000e+00 0.000000000000e+00 0.000000000000e+00 1.000000000000e+00 0 
M u cpubox.b 1.000000000000e+00 0.000000000000e+00 0.000000000000e+00 0.000000000000e+00 0.000000000000e+00 1.000000000000e+00 0.000000000000e+00 0.000000000000e+00 0.000000000000e+00 0.000000000000e+00 1.000000000000e+00 0.000000000000e+00 0.000000000000e+00 0.000000000000e+00 0.000000000000e+00 1.000000000000e+00 0 
S 20 cpunapl 8 3.461412960000e+02 -6.379940410000e+01 1.524000000000e+03 3.322211910000e+02 -7.618765250000e+01 0.000000000000e+00 3.322211910000e+02 -7.618765250000e+01 1.270000000000e+02 0.000000000000e+00 0.000000000000e+00 1.270000000000e+02 -1.703277580000e+00 -7.427196500000e+00 0.000000000000e+00 3.305179440000e+02 -8.361485290000e+01 0.000000000000e+00 3.305179440000e+02 -8.361485290000e+01 1.270000000000e+02 -1.703277580000e+00 -7.427196500000e+00 1.270000000000e+02 
C Y cpubox.a 1100 0 2 16512 1 100 0 0 0 0 
M u cpubox.a.a 1.000000000000e+00 0.000000000000e+00 0.000000000000e+00 0.000000000000e+00 0.000000000000e+00 1.000000000000e+00 0.000000000000e+00 0.000000000000e+00 0.000000000000e+00 0.000000000000e+00 1.000000000000e+00 0.000000000000e+00 0.000000000000e+00 0.000000000000e+00 0.000000000000e+00 1.000000000000e+00 0 
M - cpubox.b.a 1.000000000000e+00 0.000000000000e+00 0.000000000000e+00 0.000000000000e+00 0.000000000000e+00 1.000000000000e+00 0.000000000000e+00 0.000000000000e+00 0.000000000000e+00 0.000000000000e+00 1.000000000000e+00 0.000000000000e+00 0.000000000000e+00 0.000000000000e+00 0.000000000000e+00 1.000000000000e+00 0 
C N cw -1 0 2 0 0 0 0 0 0 0 
M u cpubox 1.000000000000e+00 0.000000000000e+00 0.000000000000e+00 0.000000000000e+00 0.000000000000e+00 1.000000000000e+00 0.000000000000e+00 0.000000000000e+00 0.000000000000e+00 0.000000000000e+00 1.000000000000e+00 0.000000000000e+00 0.000000000000e+00 0.000000000000e+00 0.000000000000e+00 1.000000000000e+00 0 
M u psbox 1.000000000000e+00 0.000000000000e+00 0.000000000000e+00 0.000000000000e+00 0.000000000000e+00 1.000000000000e+00 0.000000000000e+00 0.000000000000e+00 0.000000000000e+00 0.000000000000e+00 1.000000000000e+00 0.000000000000e+00 0.000000000000e+00 0.000000000000e+00 0.000000000000e+00 1.000000000000e+00 0 
C Y psfoot 1100 0 1 -6484 1 100 0 127 224 127 
M u psfootbox 1.000000000000e+00 0.000000000000e+00 0.000000000000e+00 0.000000000000e+00 0.000000000000e+00 1.000000000000e+00 0.000000000000e+00 0.000000000000e+00 0.000000000000e+00 0.000000000000e+00 1.000000000000e+00 0.000000000000e+00 0.000000000000e+00 0.000000000000e+00 0.000000000000e+00 1.000000000000e+00 0 
S 20 psoutnotch 8 3.810000000000e+02 1.288705200000e+03 4.572000120000e+02 0.000000000000e+00 1.082947990000e+02 0.000000000000e+00 0.000000000000e+00 1.082947990000e+02 5.079998770000e+01 0.000000000000e+00 0.000000000000e+00 5.079998770000e+01 -7.620000000000e+02 0.000000000000e+00 0.000000000000e+00 -7.620000000000e+02 1.082947990000e+02 0.000000000000e+00 -7.620000000000e+02 1.082947990000e+02 5.079998770000e+01 -7.620000000000e+02 0.000000000000e+00 5.079998770000e+01 
S 18 psoutcyl 5 0.000000000000e+00 0.000000000000e+00 4.572000120000e+02 0.000000000000e+00 0.000000000000e+00 2.539999380000e+01 -1.314449950000e+03 0.000000000000e+00 0.000000000000e+00 0.000000000000e+00 -1.314449950000e+03 0.000000000000e+00 -1.314449950000e+03 0.000000000000e+00 0.000000000000e+00 0.000000000000e+00 -1.314449950000e+03 0.000000000000e+00 0.000000000000e+00 0.000000000000e+00 0.000000000000e+00 0.000000000000e+00 0.000000000000e+00 0.000000000000e+00 
C N pslfttop -1 0 2 3 0 0 0 0 0 0 
M u pslfttopbox 1.000000000000e+00 0.000000000000e+00 0.000000000000e+00 0.000000000000e+00 0.000000000000e+00 1.000000000000e+00 0.000000000000e+00 0.000000000000e+00 0.000000000000e+00 0.000000000000e+00 1.000000000000e+00 0.000000000000e+00 0.000000000000e+00 0.000000000000e+00 0.000000000000e+00 1.000000000000e+00 0 
M - pslfttopcyl 1.000000000000e+00 0.000000000000e+00 0.000000000000e+00 0.000000000000e+00 0.000000000000e+00 1.000000000000e+00 0.000000000000e+00 0.000000000000e+00 0.000000000000e+00 0.000000000000e+00 1.000000000000e+00 0.000000000000e+00 0.000000000000e+00 0.000000000000e+00 0.000000000000e+00 1.000000000000e+00 0 
C N psrttop -1 0 2 28783 0 0 0 0 0 0 
M u psrttopbox 1.000000000000e+00 0.000000000000e+00 0.000000000000e+00 0.000000000000e+00 0.000000000000e+00 1.000000000000e+00 0.000000000000e+00 0.000000000000e+00 0.000000000000e+00 0.000000000000e+00 1.000000000000e+00 0.000000000000e+00 0.000000000000e+00 0.000000000000e+00 0.000000000000e+00 1.000000000000e+00 0 
M - psrttopcyl 1.000000000000e+00 0.000000000000e+00 0.000000000000e+00 0.000000000000e+00 0.000000000000e+00 1.000000000000e+00 0.000000000000e+00 0.000000000000e+00 0.000000000000e+00 0.000000000000e+00 1.000000000000e+00 0.000000000000e+00 0.000000000000e+00 0.000000000000e+00 0.000000000000e+00 1.000000000000e+00 0 
S 18 psintopcyl 5 -2.540000000000e+02 7.620000000000e+02 4.698999930000e+02 5.080000000000e+02 0.000000000000e+00 0.000000000000e+00 0.000000000000e+00 -1.269999980000e+01 0.000000000000e+00 0.000000000000e+00 0.000000000000e+00 -1.269999980000e+01 0.000000000000e+00 -1.269999980000e+01 0.000000000000e+00 0.000000000000e+00 0.000000000000e+00 -1.269999980000e+01 0.000000000000e+00 0.000000000000e+00 0.000000000000e+00 0.000000000000e+00 0.000000000000e+00 0.000000000000e+00 
S 20 psintopbox 8 3.810000000000e+02 6.350000000000e+02 4.698999930000e+02 0.000000000000e+00 1.270000000000e+02 0.000000000000e+00 0.000000000000e+00 1.270000000000e+02 1.651000060000e+02 0.000000000000e+00 0.000000000000e+00 1.651000060000e+02 -7.620000000000e+02 0.000000000000e+00 0.000000000000e+00 -7.620000000000e+02 1.270000000000e+02 0.000000000000e+00 -7.620000000000e+02 1.270000000000e+02 1.651000060000e+02 -7.620000000000e+02 0.000000000000e+00 1.651000060000e+02 
S 18 pslfttopcyl 5 3.012972830000e+01 2.491194610000e+02 4.635499870000e+02 2.477647090000e+02 1.245597290000e+03 0.000000000000e+00 0.000000000000e+00 0.000000000000e+00 -1.904999920000e+01 -1.868395800000e+01 3.716470710000e+00 0.000000000000e+00 0.000000000000e+00 0.000000000000e+00 -1.904999920000e+01 -1.868395800000e+01 3.716470710000e+00 0.000000000000e+00 0.000000000000e+00 0.000000000000e+00 0.000000000000e+00 0.000000000000e+00 0.000000000000e+00 0.000000000000e+00 
S 18 psrttopcyl 5 -3.012972830000e+01 2.491194610000e+02 4.635499870000e+02 -2.477647090000e+02 1.245597290000e+03 0.000000000000e+00 0.000000000000e+00 0.000000000000e+00 -1.904999920000e+01 1.868395800000e+01 3.716470710000e+00 0.000000000000e+00 0.000000000000e+00 0.000000000000e+00 -1.904999920000e+01 1.868395800000e+01 3.716470710000e+00 0.000000000000e+00 0.000000000000e+00 0.000000000000e+00 0.000000000000e+00 0.000000000000e+00 0.000000000000e+00 0.000000000000e+00 
m 4 1400 1499 9 7 20
S 20 psrttopbox 8 -3.012972830000e+01 2.491194610000e+02 4.635499870000e+02 -2.477647090000e+02 1.245597290000e+03 0.000000000000e+00 -2.477647090000e+02 1.245597290000e+03 1.714500120000e+02 0.000000000000e+00 0.000000000000e+00 1.714500120000e+02 -1.270000000000e+02 0.000000000000e+00 0.000000000000e+00 -4.001647030000e+02 1.245597290000e+03 0.000000000000e+00 -4.001647030000e+02 1.245597290000e+03 1.714500120000e+02 -1.270000000000e+02 0.000000000000e+00 1.714500120000e+02 
S 20 pslfttopbox 8 1.571297300000e+02 2.491194610000e+02 4.635499870000e+02 2.731647030000e+02 1.245597290000e+03 0.000000000000e+00 2.731647030000e+02 1.245597290000e+03 1.714500120000e+02 0.000000000000e+00 0.000000000000e+00 1.714500120000e+02 -1.270000000000e+02 0.000000000000e+00 0.000000000000e+00 1.207647090000e+02 1.245597290000e+03 0.000000000000e+00 1.207647090000e+02 1.245597290000e+03 1.714500120000e+02 -1.270000000000e+02 0.000000000000e+00 1.714500120000e+02 
C N psintop -1 0 2 3 0 0 0 0 0 0 
M u psintopbox 1.000000000000e+00 0.000000000000e+00 0.000000000000e+00 0.000000000000e+00 0.000000000000e+00 1.000000000000e+00 0.000000000000e+00 0.000000000000e+00 0.000000000000e+00 0.000000000000e+00 1.000000000000e+00 0.000000000000e+00 0.000000000000e+00 0.000000000000e+00 0.000000000000e+00 1.000000000000e+00 0 
M - psintopcyl 1.000000000000e+00 0.000000000000e+00 0.000000000000e+00 0.000000000000e+00 0.000000000000e+00 1.000000000000e+00 0.000000000000e+00 0.000000000000e+00 0.000000000000e+00 0.000000000000e+00 1.000000000000e+00 0.000000000000e+00 0.000000000000e+00 0.000000000000e+00 0.000000000000e+00 1.000000000000e+00 0 
C N cpw0 -1 0 1 6 0 0 0 0 0 0 
M u cw 1.000000000000e+00 0.000000000000e+00 0.000000000000e+00 0.000000000000e+00 0.000000000000e+00 1.000000000000e+00 0.000000000000e+00 0.000000000000e+00 0.000000000000e+00 0.000000000000e+00 1.000000000000e+00 0.000000000000e+00 0.000000000000e+00 0.000000000000e+00 0.000000000000e+00 1.000000000000e+00 0 
C N psbasenotch -1 0 3 0 0 0 0 0 0 0 
M u psmaxbox 1.000000000000e+00 0.000000000000e+00 0.000000000000e+00 0.000000000000e+00 0.000000000000e+00 1.000000000000e+00 0.000000000000e+00 0.000000000000e+00 0.000000000000e+00 0.000000000000e+00 1.000000000000e+00 0.000000000000e+00 0.000000000000e+00 0.000000000000e+00 0.000000000000e+00 1.000000000000e+00 0 
M - psminbox 1.000000000000e+00 0.000000000000e+00 0.000000000000e+00 0.000000000000e+00 0.000000000000e+00 1.000000000000e+00 0.000000000000e+00 0.000000000000e+00 0.000000000000e+00 0.000000000000e+00 1.000000000000e+00 0.000000000000e+00 0.000000000000e+00 0.000000000000e+00 0.000000000000e+00 1.000000000000e+00 0 
M - psoutnotch 1.000000000000e+00 0.000000000000e+00 0.000000000000e+00 0.000000000000e+00 0.000000000000e+00 1.000000000000e+00 0.000000000000e+00 0.000000000000e+00 0.000000000000e+00 0.000000000000e+00 1.000000000000e+00 0.000000000000e+00 0.000000000000e+00 0.000000000000e+00 0.000000000000e+00 1.000000000000e+00 0 
C N psbox -1 0 2 3 0 0 0 0 0 0 
M u psbase 1.000000000000e+00 0.000000000000e+00 0.000000000000e+00 0.000000000000e+00 0.000000000000e+00 1.000000000000e+00 0.000000000000e+00 0.000000000000e+00 0.000000000000e+00 0.000000000000e+00 1.000000000000e+00 0.000000000000e+00 0.000000000000e+00 0.000000000000e+00 0.000000000000e+00 1.000000000000e+00 0 
M u psfoot 1.000000000000e+00 0.000000000000e+00 0.000000000000e+00 0.000000000000e+00 0.000000000000e+00 1.000000000000e+00 0.000000000000e+00 0.000000000000e+00 0.000000000000e+00 0.000000000000e+00 1.000000000000e+00 0.000000000000e+00 0.000000000000e+00 0.000000000000e+00 0.000000000000e+00 1.000000000000e+00 0 
C N cpw1 -1 0 1 0 0 0 0 0 0 0 
M u cw 9.238795280000e-01 -3.826834200000e-01 0.000000000000e+00 0.000000000000e+00 3.826834200000e-01 9.238795280000e-01 0.000000000000e+00 0.000000000000e+00 0.000000000000e+00 0.000000000000e+00 1.000000000000e+00 0.000000000000e+00 0.000000000000e+00 0.000000000000e+00 0.000000000000e+00 1.000000000000e+00 0 
C Y cpucte1.r 1002 0 1 0 1 100 0 9 66 232 
M u cpucte1 1.000000000000e+00 0.000000000000e+00 0.000000000000e+00 0.000000000000e+00 0.000000000000e+00 1.000000000000e+00 0.000000000000e+00 0.000000000000e+00 0.000000000000e+00 0.000000000000e+00 1.000000000000e+00 0.000000000000e+00 0.000000000000e+00 0.000000000000e+00 0.000000000000e+00 1.000000000000e+00 0 
S 24 plate 24 0.000000000000e+00 0.000000000000e+00 1.000000000000e+00 -1.000000000000e+02 0.000000000000e+00 0.000000000000e+00 0.000000000000e+00 0.000000000000e+00 0.000000000000e+00 0.000000000000e+00 0.000000000000e+00 0.000000000000e+00 0.000000000000e+00 0.000000000000e+00 0.000000000000e+00 0.000000000000e+00 0.000000000000e+00 0.000000000000e+00 0.000000000000e+00 0.000000000000e+00 0.000000000000e+00 0.000000000000e+00 0.000000000000e+00 0.000000000000e+00 
C Y psbase 1000 0 5 16512 1 100 0 0 0 0 
M u psoutbox 1.000000000000e+00 0.000000000000e+00 0.000000000000e+00 0.000000000000e+00 0.000000000000e+00 1.000000000000e+00 0.000000000000e+00 0.000000000000e+00 0.000000000000e+00 0.000000000000e+00 1.000000000000e+00 0.000000000000e+00 0.000000000000e+00 0.000000000000e+00 0.000000000000e+00 1.000000000000e+00 0 
M - pslfttop 1.000000000000e+00 0.000000000000e+00 0.000000000000e+00 0.000000000000e+00 0.000000000000e+00 1.000000000000e+00 0.000000000000e+00 0.000000000000e+00 0.000000000000e+00 0.000000000000e+00 1.000000000000e+00 0.000000000000e+00 0.000000000000e+00 0.000000000000e+00 0.000000000000e+00 1.000000000000e+00 0 
M - psrttop 1.000000000000e+00 0.000000000000e+00 0.000000000000e+00 0.000000000000e+00 0.000000000000e+00 1.000000000000e+00 0.000000000000e+00 0.000000000000e+00 0.000000000000e+00 0.000000000000e+00 1.000000000000e+00 0.000000000000e+00 0.000000000000e+00 0.000000000000e+00 0.000000000000e+00 1.000000000000e+00 0 
M - psintop 1.000000000000e+00 0.000000000000e+00 0.000000000000e+00 0.000000000000e+00 0.000000000000e+00 1.000000000000e+00 0.000000000000e+00 0.000000000000e+00 0.000000000000e+00 0.000000000000e+00 1.000000000000e+00 0.000000000000e+00 0.000000000000e+00 0.000000000000e+00 0.000000000000e+00 1.000000000000e+00 0 
M + secwed 1.000000000000e+00 0.000000000000e+00 0.000000000000e+00 0.000000000000e+00 0.000000000000e+00 1.000000000000e+00 0.000000000000e+00 0.000000000000e+00 0.000000000000e+00 0.000000000000e+00 1.000000000000e+00 0.000000000000e+00 0.000000000000e+00 0.000000000000e+00 0.000000000000e+00 1.000000000000e+00 0 
C N cpw2 -1 0 1 0 0 0 0 0 0 0 
M u cw 7.071067810000e-01 -7.071067810000e-01 0.000000000000e+00 0.000000000000e+00 7.071067810000e-01 7.071067810000e-01 0.000000000000e+00 0.000000000000e+00 0.000000000000e+00 0.000000000000e+00 1.000000000000e+00 0.000000000000e+00 0.000000000000e+00 0.000000000000e+00 0.000000000000e+00 1.000000000000e+00 0 
C N cpw3 -1 0 1 0 0 0 0 0 0 0 
M u cw 3.826834200000e-01 -9.238795280000e-01 0.000000000000e+00 0.000000000000e+00 9.238795280000e-01 3.826834200000e-01 0.000000000000e+00 0.000000000000e+00 0.000000000000e+00 0.000000000000e+00 1.000000000000e+00 0.000000000000e+00 0.000000000000e+00 0.000000000000e+00 0.000000000000e+00 1.000000000000e+00 0 
C N psoutdisc -1 0 2 6 0 0 0 0 0 0 
M u psouttor 1.000000000000e+00 0.000000000000e+00 0.000000000000e+00 0.000000000000e+00 0.000000000000e+00 1.000000000000e+00 0.000000000000e+00 0.000000000000e+00 0.000000000000e+00 0.000000000000e+00 1.000000000000e+00 0.000000000000e+00 0.000000000000e+00 0.000000000000e+00 0.000000000000e+00 1.000000000000e+00 0 
M u psoutcyl 1.000000000000e+00 0.000000000000e+00 0.000000000000e+00 0.000000000000e+00 0.000000000000e+00 1.000000000000e+00 0.000000000000e+00 0.000000000000e+00 0.000000000000e+00 0.000000000000e+00 1.000000000000e+00 0.000000000000e+00 0.000000000000e+00 0.000000000000e+00 0.000000000000e+00 1.000000000000e+00 0 
C N psouthdisc -1 0 2 0 0 0 0 0 0 0 
M u psoutnotch 1.000000000000e+00 0.000000000000e+00 0.000000000000e+00 0.000000000000e+00 0.000000000000e+00 1.000000000000e+00 0.000000000000e+00 0.000000000000e+00 0.000000000000e+00 0.000000000000e+00 1.000000000000e+00 0.000000000000e+00 0.000000000000e+00 0.000000000000e+00 0.000000000000e+00 1.000000000000e+00 0 
M + psoutdisc 1.000000000000e+00 0.000000000000e+00 0.000000000000e+00 0.000000000000e+00 0.000000000000e+00 1.000000000000e+00 0.000000000000e+00 0.000000000000e+00 0.000000000000e+00 0.000000000000e+00 1.000000000000e+00 0.000000000000e+00 0.000000000000e+00 0.000000000000e+00 0.000000000000e+00 1.000000000000e+00 0 
C N psoutbox -1 0 2 3 0 0 0 0 0 0 
M u psbasenotch 1.000000000000e+00 0.000000000000e+00 0.000000000000e+00 0.000000000000e+00 0.000000000000e+00 1.000000000000e+00 0.000000000000e+00 0.000000000000e+00 0.000000000000e+00 0.000000000000e+00 1.000000000000e+00 0.000000000000e+00 0.000000000000e+00 0.000000000000e+00 0.000000000000e+00 1.000000000000e+00 0 
M u psouthdisc 1.000000000000e+00 0.000000000000e+00 0.000000000000e+00 0.000000000000e+00 0.000000000000e+00 1.000000000000e+00 0.000000000000e+00 0.000000000000e+00 0.000000000000e+00 0.000000000000e+00 1.000000000000e+00 0.000000000000e+00 0.000000000000e+00 0.000000000000e+00 0.000000000000e+00 1.000000000000e+00 0 
C N cpw4 -1 0 1 0 0 0 0 0 0 0 
M u cw 0.000000000000e+00 -1.000000000000e+00 0.000000000000e+00 0.000000000000e+00 1.000000000000e+00 0.000000000000e+00 0.000000000000e+00 0.000000000000e+00 0.000000000000e+00 0.000000000000e+00 1.000000000000e+00 0.000000000000e+00 0.000000000000e+00 0.000000000000e+00 0.000000000000e+00 1.000000000000e+00 0 
C N cpw5 -1 0 1 0 0 0 0 0 0 0 
M u cw -3.826834200000e-01 -9.238795280000e-01 0.000000000000e+00 0.000000000000e+00 9.238795280000e-01 -3.826834200000e-01 0.000000000000e+00 0.000000000000e+00 0.000000000000e+00 0.000000000000e+00 1.000000000000e+00 0.000000000000e+00 0.000000000000e+00 0.000000000000e+00 0.000000000000e+00 1.000000000000e+00 0 
C N cpw6 -1 0 1 0 0 0 0 0 0 0 
M u cw -7.071067810000e-01 -7.071067810000e-01 0.000000000000e+00 0.000000000000e+00 7.071067810000e-01 -7.071067810000e-01 0.000000000000e+00 0.000000000000e+00 0.000000000000e+00 0.000000000000e+00 1.000000000000e+00 0.000000000000e+00 0.000000000000e+00 0.000000000000e+00 0.000000000000e+00 1.000000000000e+00 0 
C N cpw7 -1 0 1 0 0 0 0 0 0 0 
M u cw -9.238795280000e-01 -3.826834200000e-01 0.000000000000e+00 0.000000000000e+00 3.826834200000e-01 -9.238795280000e-01 0.000000000000e+00 0.000000000000e+00 0.000000000000e+00 0.000000000000e+00 1.000000000000e+00 0.000000000000e+00 0.000000000000e+00 0.000000000000e+00 0.000000000000e+00 1.000000000000e+00 0 
C N cpw8 -1 0 1 0 0 0 0 0 0 0 
M u cw -1.000000000000e+00 0.000000000000e+00 0.000000000000e+00 0.000000000000e+00 0.000000000000e+00 -1.000000000000e+00 0.000000000000e+00 0.000000000000e+00 0.000000000000e+00 0.000000000000e+00 1.000000000000e+00 0.000000000000e+00 0.000000000000e+00 0.000000000000e+00 0.000000000000e+00 1.000000000000e+00 0 
C N cpw9 -1 0 1 0 0 0 0 0 0 0 
M u cw -9.238795280000e-01 3.826834200000e-01 0.000000000000e+00 0.000000000000e+00 -3.826834200000e-01 -9.238795280000e-01 0.000000000000e+00 0.000000000000e+00 0.000000000000e+00 0.000000000000e+00 1.000000000000e+00 0.000000000000e+00 0.000000000000e+00 0.000000000000e+00 0.000000000000e+00 1.000000000000e+00 0 
C N cpw10 -1 0 1 0 0 0 0 0 0 0 
M u cw -7.071067810000e-01 7.071067810000e-01 0.000000000000e+00 0.000000000000e+00 -7.071067810000e-01 -7.071067810000e-01 0.000000000000e+00 0.000000000000e+00 0.000000000000e+00 0.000000000000e+00 1.000000000000e+00 0.000000000000e+00 0.000000000000e+00 0.000000000000e+00 0.000000000000e+00 1.000000000000e+00 0 
C N cpw11 -1 0 1 0 0 0 0 0 0 0 
M u cw -3.826834200000e-01 9.238795280000e-01 0.000000000000e+00 0.000000000000e+00 -9.238795280000e-01 -3.826834200000e-01 0.000000000000e+00 0.000000000000e+00 0.000000000000e+00 0.000000000000e+00 1.000000000000e+00 0.000000000000e+00 0.000000000000e+00 0.000000000000e+00 0.000000000000e+00 1.000000000000e+00 0 
C Y cpunapl.r 1200 0 1 -9144 1 100 0 162 83 216 
M u cpunapl 1.000000000000e+00 0.000000000000e+00 0.000000000000e+00 0.000000000000e+00 0.000000000000e+00 1.000000000000e+00 0.000000000000e+00 0.000000000000e+00 0.000000000000e+00 0.000000000000e+00 1.000000000000e+00 0.000000000000e+00 0.000000000000e+00 0.000000000000e+00 0.000000000000e+00 1.000000000000e+00 0 
C Y plate.r 1000 0 1 -1736 1 100 0 0 0 0 1 
testmap
M u plate 1.000000000000e+00 0.000000000000e+00 0.000000000000e+00 0.000000000000e+00 0.000000000000e+00 1.000000000000e+00 0.000000000000e+00 0.000000000000e+00 0.000000000000e+00 0.000000000000e+00 1.000000000000e+00 0.000000000000e+00 0.000000000000e+00 0.000000000000e+00 0.000000000000e+00 1.000000000000e+00 0 
S 19 outcloud 11 0.000000000000e+00 0.000000000000e+00 0.000000000000e+00 2.540000000000e+04 0.000000000000e+00 0.000000000000e+00 0.000000000000e+00 2.540000000000e+04 0.000000000000e+00 0.000000000000e+00 0.000000000000e+00 2.540000000000e+04 0.000000000000e+00 0.000000000000e+00 0.000000000000e+00 0.000000000000e+00 0.000000000000e+00 0.000000000000e+00 0.000000000000e+00 0.000000000000e+00 0.000000000000e+00 0.000000000000e+00 0.000000000000e+00 0.000000000000e+00 
S 19 incloud 11 0.000000000000e+00 0.000000000000e+00 0.000000000000e+00 2.514600000000e+04 0.000000000000e+00 0.000000000000e+00 0.000000000000e+00 2.514600000000e+04 0.000000000000e+00 0.000000000000e+00 0.000000000000e+00 2.514600000000e+04 0.000000000000e+00 0.000000000000e+00 0.000000000000e+00 0.000000000000e+00 0.000000000000e+00 0.000000000000e+00 0.000000000000e+00 0.000000000000e+00 0.000000000000e+00 0.000000000000e+00 0.000000000000e+00 0.000000000000e+00 
C Y cpucte2.r 1003 0 1 12544 1 100 0 0 0 0 
M u cpucte2 1.000000000000e+00 0.000000000000e+00 0.000000000000e+00 0.000000000000e+00 0.000000000000e+00 1.000000000000e+00 0.000000000000e+00 0.000000000000e+00 0.000000000000e+00 0.000000000000e+00 1.000000000000e+00 0.000000000000e+00 0.000000000000e+00 0.000000000000e+00 0.000000000000e+00 1.000000000000e+00 0 
C Y cpucbe1.r 1102 0 1 12800 1 100 0 0 0 0 
M u cpucbe1 1.000000000000e+00 0.000000000000e+00 0.000000000000e+00 0.000000000000e+00 0.000000000000e+00 1.000000000000e+00 0.000000000000e+00 0.000000000000e+00 0.000000000000e+00 0.000000000000e+00 1.000000000000e+00 0.000000000000e+00 0.000000000000e+00 0.000000000000e+00 0.000000000000e+00 1.000000000000e+00 0 
C Y cpucbe2.r 1103 0 1 12544 1 100 0 0 0 0 
M u cpucbe2 1.000000000000e+00 0.000000000000e+00 0.000000000000e+00 0.000000000000e+00 0.000000000000e+00 1.000000000000e+00 0.000000000000e+00 0.000000000000e+00 0.000000000000e+00 0.000000000000e+00 1.000000000000e+00 0.000000000000e+00 0.000000000000e+00 0.000000000000e+00 0.000000000000e+00 1.000000000000e+00 0 
C N cpu -1 0 17 34 0 0 0 0 0 0 
M u cpw6 1.000000000000e+00 0.000000000000e+00 0.000000000000e+00 0.000000000000e+00 0.000000000000e+00 1.000000000000e+00 0.000000000000e+00 0.000000000000e+00 0.000000000000e+00 0.000000000000e+00 1.000000000000e+00 0.000000000000e+00 0.000000000000e+00 0.000000000000e+00 0.000000000000e+00 1.000000000000e+00 0 
M u cpw7 1.000000000000e+00 0.000000000000e+00 0.000000000000e+00 0.000000000000e+00 0.000000000000e+00 1.000000000000e+00 0.000000000000e+00 0.000000000000e+00 0.000000000000e+00 0.000000000000e+00 1.000000000000e+00 0.000000000000e+00 0.000000000000e+00 0.000000000000e+00 0.000000000000e+00 1.000000000000e+00 0 
M u cpw8 1.000000000000e+00 0.000000000000e+00 0.000000000000e+00 0.000000000000e+00 0.000000000000e+00 1.000000000000e+00 0.000000000000e+00 0.000000000000e+00 0.000000000000e+00 0.000000000000e+00 1.000000000000e+00 0.000000000000e+00 0.000000000000e+00 0.000000000000e+00 0.000000000000e+00 1.000000000000e+00 0 
M u cpw9 1.000000000000e+00 0.000000000000e+00 0.000000000000e+00 0.000000000000e+00 0.000000000000e+00 1.000000000000e+00 0.000000000000e+00 0.000000000000e+00 0.000000000000e+00 0.000000000000e+00 1.000000000000e+00 0.000000000000e+00 0.000000000000e+00 0.000000000000e+00 0.000000000000e+00 1.000000000000e+00 0 
M u cpw10 1.000000000000e+00 0.000000000000e+00 0.000000000000e+00 0.000000000000e+00 0.000000000000e+00 1.000000000000e+00 0.000000000000e+00 0.000000000000e+00 0.000000000000e+00 0.000000000000e+00 1.000000000000e+00 0.000000000000e+00 0.000000000000e+00 0.000000000000e+00 0.000000000000e+00 1.000000000000e+00 0 
M u cpw11 1.000000000000e+00 0.000000000000e+00 0.000000000000e+00 0.000000000000e+00 0.000000000000e+00 1.000000000000e+00 0.000000000000e+00 0.000000000000e+00 0.000000000000e+00 0.000000000000e+00 1.000000000000e+00 0.000000000000e+00 0.000000000000e+00 0.000000000000e+00 0.000000000000e+00 1.000000000000e+00 0 
M u cpw0 1.000000000000e+00 0.000000000000e+00 0.000000000000e+00 0.000000000000e+00 0.000000000000e+00 1.000000000000e+00 0.000000000000e+00 0.000000000000e+00 0.000000000000e+00 0.000000000000e+00 1.000000000000e+00 0.000000000000e+00 0.000000000000e+00 0.000000000000e+00 0.000000000000e+00 1.000000000000e+00 0 
M u cpw1 1.000000000000e+00 0.000000000000e+00 0.000000000000e+00 0.000000000000e+00 0.000000000000e+00 1.000000000000e+00 0.000000000000e+00 0.000000000000e+00 0.000000000000e+00 0.000000000000e+00 1.000000000000e+00 0.000000000000e+00 0.000000000000e+00 0.000000000000e+00 0.000000000000e+00 1.000000000000e+00 0 
M u cpw2 1.000000000000e+00 0.000000000000e+00 0.000000000000e+00 0.000000000000e+00 0.000000000000e+00 1.000000000000e+00 0.000000000000e+00 0.000000000000e+00 0.000000000000e+00 0.000000000000e+00 1.000000000000e+00 0.000000000000e+00 0.000000000000e+00 0.000000000000e+00 0.000000000000e+00 1.000000000000e+00 0 
M u cpw3 1.000000000000e+00 0.000000000000e+00 0.000000000000e+00 0.000000000000e+00 0.000000000000e+00 1.000000000000e+00 0.000000000000e+00 0.000000000000e+00 0.000000000000e+00 0.000000000000e+00 1.000000000000e+00 0.000000000000e+00 0.000000000000e+00 0.000000000000e+00 0.000000000000e+00 1.000000000000e+00 0 
M u cpw4 1.000000000000e+00 0.000000000000e+00 0.000000000000e+00 0.000000000000e+00 0.000000000000e+00 1.000000000000e+00 0.000000000000e+00 0.000000000000e+00 0.000000000000e+00 0.000000000000e+00 1.000000000000e+00 0.000000000000e+00 0.000000000000e+00 0.000000000000e+00 0.000000000000e+00 1.000000000000e+00 0 
M u cpw5 1.000000000000e+00 0.000000000000e+00 0.000000000000e+00 0.000000000000e+00 0.000000000000e+00 1.000000000000e+00 0.000000000000e+00 0.000000000000e+00 0.000000000000e+00 0.000000000000e+00 1.000000000000e+00 0.000000000000e+00 0.000000000000e+00 0.000000000000e+00 0.000000000000e+00 1.000000000000e+00 0 
M u cpucte1.r 1.000000000000e+00 0.000000000000e+00 0.000000000000e+00 0.000000000000e+00 0.000000000000e+00 1.000000000000e+00 0.000000000000e+00 0.000000000000e+00 0.000000000000e+00 0.000000000000e+00 1.000000000000e+00 0.000000000000e+00 0.000000000000e+00 0.000000000000e+00 0.000000000000e+00 1.000000000000e+00 0 
M u cpucte2.r 1.000000000000e+00 0.000000000000e+00 0.000000000000e+00 0.000000000000e+00 0.000000000000e+00 1.000000000000e+00 0.000000000000e+00 0.000000000000e+00 0.000000000000e+00 0.000000000000e+00 1.000000000000e+00 0.000000000000e+00 0.000000000000e+00 0.000000000000e+00 0.000000000000e+00 1.000000000000e+00 0 
M u cpucbe1.r 1.000000000000e+00 0.000000000000e+00 0.000000000000e+00 0.000000000000e+00 0.000000000000e+00 1.000000000000e+00 0.000000000000e+00 0.000000000000e+00 0.000000000000e+00 0.000000000000e+00 1.000000000000e+00 0.000000000000e+00 0.000000000000e+00 0.000000000000e+00 0.000000000000e+00 1.000000000000e+00 0 
M u cpucbe2.r 1.000000000000e+00 0.000000000000e+00 0.000000000000e+00 0.000000000000e+00 0.000000000000e+00 1.000000000000e+00 0.000000000000e+00 0.000000000000e+00 0.000000000000e+00 0.000000000000e+00 1.000000000000e+00 0.000000000000e+00 0.000000000000e+00 0.000000000000e+00 0.000000000000e+00 1.000000000000e+00 0 
M u cpunapl.r 1.000000000000e+00 0.000000000000e+00 0.000000000000e+00 0.000000000000e+00 0.000000000000e+00 1.000000000000e+00 0.000000000000e+00 0.000000000000e+00 0.000000000000e+00 0.000000000000e+00 1.000000000000e+00 0.000000000000e+00 0.000000000000e+00 0.000000000000e+00 0.000000000000e+00 1.000000000000e+00 0 
C Y cloud.r 1001 0 3 -1736 1 100 0 0 0 0 1 
cloud
M u outcloud 1.000000000000e+00 0.000000000000e+00 0.000000000000e+00 0.000000000000e+00 0.000000000000e+00 1.000000000000e+00 0.000000000000e+00 0.000000000000e+00 0.000000000000e+00 0.000000000000e+00 1.000000000000e+00 0.000000000000e+00 0.000000000000e+00 0.000000000000e+00 0.000000000000e+00 1.000000000000e+00 0 
M - incloud 1.000000000000e+00 0.000000000000e+00 0.000000000000e+00 0.000000000000e+00 0.000000000000e+00 1.000000000000e+00 0.000000000000e+00 0.000000000000e+00 0.000000000000e+00 0.000000000000e+00 1.000000000000e+00 0.000000000000e+00 0.000000000000e+00 0.000000000000e+00 0.000000000000e+00 1.000000000000e+00 0 
M - plate 1.000000000000e+00 0.000000000000e+00 0.000000000000e+00 0.000000000000e+00 0.000000000000e+00 1.000000000000e+00 0.000000000000e+00 0.000000000000e+00 0.000000000000e+00 0.000000000000e+00 1.000000000000e+00 0.000000000000e+00 0.000000000000e+00 0.000000000000e+00 0.000000000000e+00 1.000000000000e+00 0 
C N all -1 0 3 4 0 0 0 0 0 0 
M u cpu 1.000000000000e+00 0.000000000000e+00 0.000000000000e+00 0.000000000000e+00 0.000000000000e+00 1.000000000000e+00 0.000000000000e+00 0.000000000000e+00 0.000000000000e+00 0.000000000000e+00 1.000000000000e+00 0.000000000000e+00 0.000000000000e+00 0.000000000000e+00 0.000000000000e+00 1.000000000000e+00 0 
M u plate.r 1.000000000000e+00 0.000000000000e+00 0.000000000000e+00 0.000000000000e+00 0.000000000000e+00 1.000000000000e+00 0.000000000000e+00 0.000000000000e+00 0.000000000000e+00 0.000000000000e+00 1.000000000000e+00 0.000000000000e+00 0.000000000000e+00 0.000000000000e+00 0.000000000000e+00 1.000000000000e+00 0 
M u cloud.r 1.000000000000e+00 0.000000000000e+00 0.000000000000e+00 0.000000000000e+00 0.000000000000e+00 1.000000000000e+00 0.000000000000e+00 0.000000000000e+00 0.000000000000e+00 0.000000000000e+00 1.000000000000e+00 0.000000000000e+00 0.000000000000e+00 0.000000000000e+00 0.000000000000e+00 1.000000000000e+00 0 
